88

10
Tob Ymith
Hob Fmith
Gob Imith
Zob Ymith
Iob Ymith
Dob Wmith
Wob Emith
Tob Emith
Zob Qmith
Kob Vmith
7 5 2 4 9 10 8 3 6 1
8 5 7 10 4 2 1 9 3 6
7 1 5 3 8 6 9 10 4 2
6 8 1 5 2 3 9 4 7 10
2 4 8 5 10 1 6 7 3 9
10 5 2 6 8 4 3 1 7 9
1 6 4 3 10 5 7 9 8 2
7 10 6 5 2 4 1 8 9 3
3 2 4 8 5 9 1 7 10 6
3 1 9 2 4 5 10 6 8 7
2 8 6 1 5 9 4 10 3 7
7 6 8 9 5 3 2 10 4 1
4 9 8 10 6 2 5 7 3 1
1 5 6 9 7 3 8 10 4 2
4 6 10 1 7 5 8 2 3 9
5 10 7 9 6 4 1 2 3 8

15
Job Smith
Cob Lmith
Gob Xmith
Cob Gmith
Nob Smith
Iob Zmith
Zob Amith
Aob Mmith
Fob Zmith
Nob Wmith
Yob Tmith
Kob Nmith
Tob Tmith
Tob Mmith
Oob Tmith
14 11 15 3 13 10 1 6 2 5 8 4 12 7 9
7 2 4 10 5 6 1 13 12 3 8 14 9 15 11
3 9 1 4 12 5 15 13 7 10 8 2 11 6 14
11 6 8 3 13 4 15 14 5 10 2 7 1 12 9
3 12 4 11 2 14 9 1 15 13 5 7 8 10 6
14 10 6 4 13 7 9 5 12 11 3 8 2 15 1
8 1 2 14 3 5 13 10 7 11 9 6 15 12 4
5 14 6 4 10 13 8 9 3 12 1 11 7 2 15
1 3 15 10 4 7 14 5 2 9 12 11 13 6 8
15 7 9 14 3 2 11 6 5 1 8 12 4 13 10
7 5 4 2 6 8 3 9 14 12 1 11 10 13 15
1 10 9 3 8 11 6 14 5 2 12 13 15 4 7
11 13 12 1 6 4 14 2 8 3 9 10 7 5 15
13 3 2 5 15 7 1 8 14 10 11 12 9 6 4
14 12 6 4 9 3 5 7 15 2 13 1 10 11 8
4 5 15 12 11 6 13 7 1 9 3 14 10 8 2
14 1 7 6 3 12 10 15 5 4 9 8 2 11 13
5 13 10 12 4 9 6 3 7 8 2 1 15 14 11
15 6 14 13 12 5 3 7 1 11 2 4 8 10 9
8 15 7 1 3 10 9 6 13 12 2 4 5 11 14
8 15 12 4 1 11 2 10 5 6 13 14 9 3 7
1 5 2 14 11 8 6 9 10 13 3 15 4 12 7
2 15 4 14 1 11 9 7 10 13 5 3 6 12 8
6 8 11 1 10 4 7 5 14 2 15 12 9 3 13
2 4 15 6 1 9 10 11 13 12 8 3 7 14 5
4 7 8 12 15 10 3 14 11 2 5 1 9 6 13
12 4 11 3 14 10 6 8 2 7 5 15 13 1 9
4 1 11 7 12 13 2 8 6 10 3 5 15 14 9
7 9 3 14 15 4 10 2 12 8 1 5 11 13 6
10 6 1 11 3 5 15 8 12 13 14 9 2 4 7
6 3 11 10 15 4 1 2 12 7 8 13 5 14 9
1 3 11 8 9 6 12 13 7 15 5 2 4 10 14
8 1 6 9 13 5 2 15 7 10 4 14 3 11 12
2 8 10 6 12 7 1 5 3 15 9 4 11 13 14
4 13 6 12 1 9 2 5 11 7 10 8 14 15 3
13 2 12 5 14 8 6 3 7 11 4 9 15 10 1
5 7 6 12 15 8 11 1 4 3 13 10 14 2 9
15 11 7 12 2 1 14 10 5 4 3 8 13 9 6
1 9 11 2 15 5 6 8 10 7 12 13 3 4 14
3 7 12 11 9 1 8 2 6 5 10 14 4 13 15
10 14 12 2 7 3 5 8 13 4 11 6 15 9 1
4 15 3 13 2 8 7 5 9 14 12 6 1 10 11
6 2 11 13 15 3 5 1 14 7 4 12 10 8 9
1 3 9 4 7 6 2 14 8 13 15 10 5 11 12
10 1 3 9 8 14 12 13 11 15 2 5 4 6 7
13 11 2 4 1 9 14 12 3 15 6 5 7 10 8
3 14 7 13 2 4 6 10 9 5 12 11 15 8 1
15 13 2 5 4 8 3 12 10 6 14 11 1 9 7

11
Bob Fmith
Oob Imith
Cob Jmith
Pob Fmith
Mob Umith
Cob Wmith
Fob Bmith
Uob Vmith
Lob Vmith
Yob Bmith
Xob Amith
4 8 7 10 1 11 5 3 2 6 9
9 8 11 10 2 5 7 4 6 1 3
3 9 7 4 11 1 5 10 2 8 6
4 8 6 3 11 7 9 2 5 1 10
3 11 8 6 2 9 7 10 5 1 4
9 10 4 7 6 1 5 2 8 11 3
10 5 1 4 6 8 9 7 2 11 3
2 8 6 9 4 7 5 3 11 1 10
6 11 9 4 5 2 1 8 10 7 3
8 3 11 9 4 6 10 5 7 2 1
6 9 1 2 7 11 10 5 8 3 4
1 6 4 2 7 8 10 3 5 11 9
9 8 11 6 10 4 5 1 7 2 3
11 7 6 2 3 9 4 5 1 8 10
11 4 1 2 7 9 5 6 10 3 8
7 10 9 11 6 3 1 8 4 2 5
8 2 10 7 4 5 11 9 6 1 3
7 5 10 1 3 11 2 9 8 4 6
3 11 4 10 6 2 5 1 9 8 7
8 10 1 9 6 7 11 4 3 2 5
3 6 2 10 4 9 11 1 7 8 5
5 9 11 8 10 3 7 4 1 6 2
8 6 4 3 2 1 10 11 5 9 7
3 2 9 8 4 6 7 10 5 11 1
3 9 1 6 10 2 5 7 4 11 8
5 9 8 3 2 10 6 7 1 4 11
4 2 11 7 6 8 10 3 1 9 5
3 2 4 8 1 11 5 6 7 10 9
2 4 10 9 1 5 8 11 6 7 3
10 2 1 3 7 4 11 5 9 8 6
2 3 5 9 8 7 4 1 6 10 11
4 1 3 10 11 8 5 6 9 7 2
3 10 1 8 9 5 7 6 2 4 11
4 5 11 8 1 7 3 9 6 2 10
10 11 7 1 5 3 9 4 2 6 8
6 7 1 8 11 3 2 4 9 10 5
3 6 5 8 2 9 1 11 7 10 4
4 11 2 10 3 7 6 8 9 1 5
9 2 7 11 4 6 5 1 8 10 3
8 5 9 10 6 1 11 7 3 4 2
1 9 10 7 3 6 4 5 11 2 8
3 7 2 5 8 11 4 1 10 9 6
7 9 5 6 11 4 8 10 2 1 3
7 9 5 6 4 8 11 1 2 3 10
3 11 2 5 8 10 1 9 6 7 4
11 7 6 4 2 5 1 3 10 8 9
11 8 5 9 4 1 6 7 3 2 10
11 5 8 7 10 6 9 3 1 2 4
11 9 8 2 10 3 1 5 7 4 6
11 3 7 8 1 4 5 6 9 10 2
10 1 9 7 4 6 11 5 2 3 8
3 1 11 5 8 7 4 10 9 6 2
2 4 3 10 7 6 11 8 5 9 1
5 4 6 8 3 9 1 11 10 7 2
8 4 3 10 6 2 9 5 11 1 7
10 2 5 4 9 6 8 1 3 7 11
1 7 4 9 5 6 3 10 8 11 2

15
Fob Zmith
Cob Nmith
Eob Zmith
Rob Rmith
Qob Umith
Xob Vmith
Fob Nmith
Iob Amith
Mob Kmith
Dob Wmith
Yob Vmith
Sob Hmith
Aob Emith
Iob Omith
Wob Nmith
13 12 5 6 8 14 2 7 10 1 4 15 11 3 9
5 15 9 11 4 3 12 2 13 8 6 14 7 1 10
8 1 3 2 15 12 6 10 13 5 7 11 14 9 4
9 1 6 12 4 15 7 11 8 13 3 2 10 14 5
1 12 9 3 7 4 6 8 5 10 14 13 15 2 11
1 9 15 14 13 3 5 10 8 7 11 2 12 6 4
10 11 9 6 3 4 2 1 13 15 5 12 8 14 7
13 12 9 11 5 4 10 15 1 7 2 8 3 14 6
2 6 12 13 11 9 7 15 4 3 5 8 10 14 1
12 2 5 10 15 6 14 7 8 9 4 1 11 13 3
7 15 11 1 9 2 10 5 6 13 14 4 3 8 12
3 8 6 5 9 10 4 11 2 15 13 1 14 12 7
14 4 8 5 1 3 9 13 15 7 6 2 11 12 10
10 6 13 9 14 8 7 5 15 11 1 3 2 4 12

20
Aob Wmith
Wob Qmith
Wob Nmith
Oob Zmith
Tob Hmith
Qob Emith
Hob Umith
Cob Fmith
Qob Xmith
Job Amith
Dob Bmith
Iob Fmith
Rob Gmith
Xob Emith
Pob Tmith
Iob Nmith
Kob Dmith
Vob Qmith
Sob Vmith
Mob Gmith
17 11 16 1 18 20 5 14 12 6 10 7 4 3 15 13 2 9 8 19
5 13 20 17 16 2 1 6 4 11 10 15 18 7 12 3 14 9 8 19
19 12 1 14 2 18 9 6 7 11 16 8 17 20 15 3 5 4 13 10
12 5 7 20 8 18 11 15 1 10 9 6 17 19 16 14 13 3 2 4
16 11 17 15 14 8 4 3 18 12 19 6 7 10 5 13 2 1 20 9
3 12 8 10 5 11 13 20 15 16 7 19 17 9 6 1 14 4 18 2
2 13 14 4 3 20 7 8 19 9 10 5 11 17 1 6 16 18 12 15
12 4 1 2 6 16 5 14 7 8 18 17 13 11 10 15 20 3 9 19
1 20 13 18 6 9 16 2 3 10 19 11 12 15 4 7 8 14 5 17
8 17 5 6 15 12 2 1 16 9 4 11 13 20 14 3 10 7 18 19
6 3 11 15 20 4 7 18 9 10 16 19 17 1 2 14 13 5 8 12
18 11 7 14 2 12 19 15 17 6 5 9 16 20 4 1 3 8 10 13
10 8 7 3 18 16 11 1 15 5 12 4 17 6 14 13 2 20 19 9
1 16 3 9 8 18 15 6 20 12 13 2 10 19 17 14 5 7 11 4
13 10 12 20 5 19 15 1 7 18 9 4 17 16 8 2 6 3 11 14
15 3 13 5 7 8 12 2 6 10 19 1 14 11 16 20 9 18 4 17
17 7 6 16 1 9 15 13 14 18 10 11 12 8 19 5 4 20 3 2
7 1 3 4 16 19 15 17 8 5 14 20 13 6 9 12 2 11 10 18
5 17 2 16 4 1 20 7 10 19 14 9 12 8 3 11 13 18 15 6
3 18 9 6 7 14 8 2 19 1 17 15 4 10 16 11 20 5 13 12
19 12 14 8 2 4 11 18 6 10 7 1 17 15 9 20 3 5 16 13
11 18 1 8 9 16 4 5 10 14 17 2 13 7 6 19 20 12 15 3
20 15 4 17 5 6 9 16 12 13 7 14 11 3 8 2 18 19 1 10
9 7 11 8 2 12 18 20 15 10 16 13 4 17 3 19 6 5 1 14
9 2 15 16 18 7 1 4 17 11 13 20 10 6 8 3 14 19 5 12
20 11 3 5 15 2 9 8 18 14 6 17 19 1 4 12 7 10 16 13
5 18 17 14 3 8 10 15 13 4 12 1 19 9 16 6 2 20 11 7
10 7 8 1 2 9 19 11 16 13 15 17 4 3 12 18 6 14 5 20
14 13 20 8 18 12 15 19 7 17 11 6 16 2 9 4 1 10 3 5
13 9 17 10 12 6 7 5 15 20 19 8 1 16 3 4 18 2 14 11
13 11 14 12 1 5 2 6 10 4 15 19 8 9 7 17 16 18 20 3
17 8 14 5 4 2 3 1 6 19 9 15 10 16 12 11 7 13 20 18
7 6 10 13 12 3 4 2 1 14 5 20 15 9 18 17 19 8 16 11
8 4 14 6 11 15 20 7 16 2 18 13 9 12 19 5 3 10 17 1
12 1 10 13 11 5 8 18 16 6 20 17 14 2 19 15 4 7 3 9
10 17 18 7 3 12 4 11 15 2 9 14 16 13 19 20 1 6 8 5
3 18 14 7 5 4 20 19 1 13 6 15 17 2 12 11 8 16 10 9
5 20 7 9 4 2 14 8 6 16 12 19 3 15 18 11 17 10 1 13
12 5 17 11 14 18 13 2 16 10 6 1 7 19 4 8 3 9 20 15
3 15 7 20 16 8 12 13 9 18 2 14 1 5 17 11 10 4 19 6
11 19 12 20 7 14 9 2 4 3 10 6 16 5 18 13 1 15 17 8
17 13 3 7 6 8 20 12 10 9 16 1 4 11 2 18 19 15 14 5
1 4 5 10 2 12 15 16 11 18 20 6 3 9 19 7 14 17 8 13
10 4 9 6 18 19 8 15 3 16 1 12 20 2 17 13 7 5 11 14
10 12 18 1 7 14 4 9 17 11 6 20 8 15 13 19 3 5 2 16
18 15 3 17 7 16 14 9 4 12 19 2 20 11 8 13 10 5 6 1
6 9 14 12 8 1 11 5 17 15 10 13 18 16 4 3 7 2 20 19
14 16 5 12 6 8 15 4 19 17 13 1 7 2 3 9 18 10 11 20
19 13 7 11 4 20 2 12 15 8 6 5 1 18 16 3 14 17 10 9

5
Wob Mmith
Gob Bmith
Dob Fmith
Lob Amith
Aob Mmith
4 3 5 2 1
3 1 5 2 4
5 2 1 4 3
3 4 5 2 1
3 1 4 2 5

16
Dob Umith
Bob Fmith
Nob Nmith
Lob Zmith
Job Lmith
Hob Wmith
Mob Zmith
Mob Nmith
Aob Lmith
Nob Vmith
Kob Nmith
Vob Wmith
Wob Amith
Aob Imith
Bob Kmith
Hob Smith
12 15 16 10 5 1 6 2 13 11 9 3 4 14 7 8
11 10 16 14 8 15 9 4 12 7 13 6 5 1 2 3
9 2 14 7 11 3 16 6 1 5 12 10 15 4 8 13
3 15 6 16 9 12 4 8 13 2 1 11 5 14 10 7
8 11 3 5 12 7 6 10 14 2 13 9 16 4 1 15
16 6 1 2 8 15 5 12 11 10 3 13 4 9 7 14
13 6 11 12 7 4 1 9 3 2 10 8 5 14 16 15
3 4 10 12 1 7 13 2 11 8 14 16 15 9 5 6
3 13 12 2 5 16 8 4 1 6 10 15 11 7 9 14
3 16 13 9 14 5 1 6 15 11 2 7 12 10 4 8
10 15 11 16 4 3 2 6 12 5 7 8 14 13 1 9
6 14 7 5 16 11 12 2 4 8 3 9 10 13 1 15
2 12 16 4 13 14 5 3 8 15 7 10 6 9 1 11
2 15 14 6 13 4 3 9 7 10 16 12 1 5 11 8
12 5 10 14 4 8 1 9 3 16 13 15 2 11 7 6
12 5 1 10 3 2 11 8 9 7 14 6 16 15 13 4
10 9 14 3 2 11 8 15 12 7 1 13 6 16 5 4
2 14 5 4 12 9 1 15 7 11 8 16 13 6 10 3
10 2 11 4 16 12 7 15 1 9 8 13 3 5 6 14
13 15 5 8 1 6 14 4 2 7 12 11 10 16 3 9
6 1 11 16 2 8 15 14 3 9 5 4 12 10 13 7
12 16 8 2 10 11 6 15 14 9 7 5 13 4 3 1
6 7 5 13 15 12 8 2 16 4 9 10 14 3 11 1
5 11 1 12 3 15 7 16 2 9 6 4 10 8 14 13
4 10 6 2 12 7 14 16 13 11 5 3 9 8 1 15
5 16 10 7 12 6 15 14 9 4 13 1 3 2 11 8
9 3 4 2 7 1 13 15 16 14 11 6 8 10 5 12
16 2 10 12 9 13 8 6 3 4 15 14 1 7 5 11
14 7 1 8 4 10 15 6 2 3 12 13 16 5 9 11
2 9 7 15 13 6 1 4 3 11 12 16 14 8 5 10
12 3 4 5 8 15 16 14 7 9 2 11 13 1 6 10
6 16 2 7 8 14 10 9 11 3 15 5 1 4 12 13
14 7 13 3 16 5 1 9 4 2 6 8 11 10 15 12
4 14 9 7 10 15 16 5 1 11 12 3 2 13 8 6
6 14 7 2 8 4 12 16 13 1 5 10 11 15 3 9
15 8 6 10 16 4 2 12 13 11 7 3 14 5 1 9
16 13 5 6 12 1 14 4 3 10 9 8 11 15 7 2
1 2 14 9 6 5 3 7 11 10 12 16 15 13 4 8
11 7 10 15 14 16 1 8 2 6 5 4 3 12 9 13
4 13 14 9 16 12 6 2 15 7 5 8 1 11 3 10
12 8 1 11 15 7 5 3 4 16 13 10 14 6 2 9
3 2 6 4 15 14 5 13 7 16 11 10 8 1 9 12
14 9 6 2 13 11 1 7 3 10 12 4 5 16 8 15
3 7 15 14 8 16 10 9 11 6 5 4 2 1 13 12
10 3 11 2 13 12 5 14 15 1 16 7 8 4 9 6
9 3 7 1 14 11 16 4 12 5 15 13 8 10 2 6
4 16 14 7 3 13 15 11 5 9 1 8 10 12 2 6
14 4 7 9 16 1 8 6 12 5 10 2 13 3 15 11
3 12 15 16 4 10 5 2 7 1 13 11 6 14 9 8
3 6 14 7 4 16 9 13 12 8 10 5 15 1 11 2
14 13 6 5 3 7 15 9 4 1 10 11 8 12 16 2
6 12 10 4 14 1 2 16 7 9 3 15 8 5 11 13
7 3 6 11 8 5 16 1 15 10 2 4 12 9 14 13
13 10 8 3 12 16 15 5 4 1 14 7 2 11 9 6
15 14 3 7 9 10 13 2 12 6 11 1 8 4 16 5
1 14 15 3 16 7 9 8 4 13 6 10 12 5 2 11
2 12 7 14 11 3 1 16 8 13 6 9 15 4 10 5
13 5 8 15 11 12 6 1 2 14 7 10 4 9 16 3
11 3 2 15 10 16 4 1 5 14 7 8 6 13 9 12

8
Xob Gmith
Lob Hmith
Bob Mmith
Qob Nmith
Qob Pmith
Tob Vmith
Aob Smith
Gob Gmith
4 2 3 7 1 5 6 8
6 3 1 5 8 2 7 4
6 7 4 2 8 1 5 3
8 3 6 7 1 5 2 4
4 8 5 2 3 1 7 6
7 4 1 3 5 8 6 2
6 4 3 2 1 5 7 8
4 1 6 7 8 3 5 2
8 6 7 1 3 2 5 4
6 8 2 4 3 1 7 5
7 5 4 2 6 1 3 8
7 3 2 8 1 6 4 5
2 6 8 7 1 4 3 5
6 3 4 2 1 8 7 5
8 7 3 1 6 2 5 4
4 5 2 7 3 1 8 6
6 7 4 1 8 2 3 5
7 3 6 8 1 4 5 2
8 3 6 4 5 2 7 1
8 5 7 2 1 4 6 3
2 4 5 1 7 6 8 3
3 8 4 2 7 6 5 1
6 7 1 8 2 4 3 5
2 1 7 6 5 8 4 3
4 8 6 2 5 1 7 3
7 5 4 1 3 8 6 2
5 6 8 1 2 7 4 3
8 2 1 5 3 6 7 4
6 3 1 4 8 2 7 5
8 1 3 7 5 2 4 6
4 5 6 3 1 2 8 7
8 5 4 2 1 7 6 3
5 8 6 1 3 7 4 2
2 7 8 5 1 4 3 6

16
Dob Dmith
Zob Rmith
Zob Fmith
Oob Xmith
Iob Amith
Gob Umith
Zob Smith
Job Cmith
Tob Amith
Gob Pmith
Mob Fmith
Gob Xmith
Iob Tmith
Dob Wmith
Job Imith
Aob Vmith
4 5 10 13 14 2 9 11 15 6 12 7 3 16 8 1
5 12 4 7 15 1 14 13 6 10 8 16 11 2 3 9
16 8 14 6 4 15 7 11 1 5 10 13 3 9 12 2

16
Nob Amith
Pob Zmith
Lob Rmith
Oob Xmith
Qob Pmith
Fob Kmith
Dob Emith
Xob Jmith
Aob Pmith
Uob Qmith
Gob Hmith
Bob Dmith
Vob Omith
Wob Gmith
Eob Qmith
Qob Gmith
6 1 7 9 10 4 13 15 14 2 12 11 8 3 16 5
12 11 15 9 2 14 8 5 7 4 13 3 1 10 6 16
11 14 13 4 1 8 15 12 16 5 10 9 7 3 6 2
14 3 15 12 7 2 16 9 8 1 13 6 5 4 11 10
6 15 11 10 12 3 1 8 2 7 13 5 4 16 9 14
5 14 16 2 4 8 3 7 1 6 10 13 11 15 12 9
10 6 16 14 11 8 4 1 13 12 2 7 9 3 5 15
10 1 8 12 7 6 15 5 2 4 14 3 11 16 9 13
11 3 7 10 9 14 16 13 2 1 12 15 6 5 4 8
15 2 3 1 9 13 8 7 14 4 11 16 12 6 10 5
8 16 11 5 13 12 15 3 9 6 4 1 14 2 10 7
11 14 8 10 2 4 3 16 15 9 6 12 7 13 5 1
6 13 8 11 2 5 3 7 4 14 9 12 10 15 16 1
6 2 16 4 7 3 11 14 12 15 13 9 5 10 1 8
11 4 9 10 13 14 6 1 7 8 3 16 5 12 2 15
7 9 13 1 2 16 14 3 8 5 10 11 12 15 6 4
10 11 9 14 8 16 7 12 15 5 13 2 1 6 3 4
4 10 5 16 7 13 6 8 12 2 15 3 14 9 1 11
7 13 6 9 5 14 3 4 15 2 16 10 8 12 1 11
13 8 16 14 9 7 6 5 10 2 15 1 3 4 12 11
6 15 12 5 11 13 10 9 2 1 16 3 7 14 4 8
1 4 8 13 12 7 6 2 15 9 16 11 14 3 10 5
2 14 7 5 1 12 10 6 15 13 8 11 4 16 9 3
15 12 13 5 10 9 1 14 11 8 4 16 6 3 7 2
6 1 11 2 13 10 4 3 14 15 8 5 7 16 12 9
15 9 12 10 13 11 8 16 3 14 6 4 7 5 2 1
14 2 9 6 1 11 5 7 3 13 12 8 10 4 15 16
9 3 7 15 12 8 1 10 4 14 16 11 5 13 2 6
4 14 6 13 11 5 1 15 2 9 16 8 7 12 10 3
6 4 2 1 9 8 5 3 14 12 16 13 11 10 7 15
15 7 9 16 11 14 12 3 6 1 8 4 10 5 2 13
13 12 15 7 9 2 6 1 10 16 4 11 3 8 14 5
5 3 7 10 8 14 12 13 1 6 4 11 9 15 16 2
16 4 10 5 15 7 3 9 12 14 6 13 1 8 2 11
14 2 7 4 16 11 15 10 6 8 13 5 3 1 9 12
15 3 1 16 10 13 14 6 9 7 4 2 5 8 11 12
11 8 14 3 5 12 13 1 4 10 9 7 6 16 15 2
14 2 11 13 8 9 7 15 16 3 10 5 12 4 6 1
2 6 1 15 13 9 16 10 4 12 3 14 8 11 5 7
14 7 5 8 10 16 6 3 1 2 11 9 13 12 4 15
14 1 9 4 15 11 8 12 6 10 7 2 16 3 13 5
4 6 9 2 11 1 12 16 7 14 3 13 8 5 15 10
9 8 12 5 14 3 1 10 11 16 7 2 4 6 15 13
6 9 8 11 16 10 1 2 7 13 14 12 15 3 4 5
11 6 16 12 10 15 3 5 2 1 8 9 4 14 7 13
7 12 14 11 6 9 15 16 8 5 2 3 4 10 1 13
10 13 5 6 9 3 15 7 12 2 8 1 14 16 4 11
10 16 11 12 15 9 8 13 2 6 5 1 4 7 3 14
13 10 15 14 6 7 8 11 1 3 16 12 2 5 9 4
9 12 15 11 2 16 3 4 6 7 13 5 14 10 1 8
7 16 1 2 10 11 15 13 4 3 5 9 14 8 6 12
16 9 6 13 7 10 3 4 11 12 15 1 5 8 2 14
4 12 6 9 5 10 3 16 8 14 2 15 11 7 13 1
7 10 16 4 8 9 15 3 14 5 6 12 13 11 2 1
9 14 3 11 6 1 5 4 2 12 8 7 13 16 10 15
10 3 13 11 14 2 7 12 1 5 15 8 6 4 16 9
4 9 10 14 6 11 8 12 2 15 3 16 5 7 1 13
1 16 10 5 7 3 4 2 15 13 9 6 11 12 8 14
9 5 6 3 8 12 11 15 4 2 10 13 1 16 7 14
4 1 11 16 15 2 12 3 6 8 7 13 5 14 10 9

14
Tob Emith
Sob Pmith
Tob Kmith
Xob Vmith
Job Ymith
Xob Smith
Cob Qmith
Xob Tmith
Eob Jmith
Dob Bmith
Vob Xmith
Yob Wmith
Vob Ymith
Cob Omith
5 14 3 12 7 11 2 9 13 6 8 4 10 1
4 11 8 7 10 9 3 14 6 2 13 1 12 5
7 4 12 10 8 9 11 3 14 6 2 5 13 1
12 6 9 7 11 3 8 1 4 14 10 2 5 13
7 4 10 9 1 8 6 3 11 5 2 14 13 12
9 10 8 3 1 5 7 14 4 6 11 12 2 13
10 8 14 12 3 5 4 6 11 7 2 13 1 9
6 1 13 14 4 3 2 9 11 8 12 7 10 5
11 8 3 12 7 4 10 1 13 14 2 9 6 5
5 8 12 7 14 2 11 3 4 9 13 6 10 1
9 3 6 5 10 7 14 4 1 13 11 8 12 2
6 9 8 10 1 3 7 4 11 14 5 13 12 2
4 6 1 11 10 7 14 3 8 13 5 9 12 2
14 10 4 3 2 12 9 1 7 6 5 13 8 11
10 11 14 8 9 1 13 2 12 3 7 5 4 6
12 9 7 10 14 4 3 13 1 8 2 11 6 5
5 11 8 6 2 7 13 1 3 10 14 12 4 9
2 14 11 5 13 10 9 8 4 1 12 7 6 3
6 12 1 2 4 13 9 7 8 5 11 10 3 14
14 3 7 8 1 6 13 12 5 2 9 4 10 11
1 12 5 14 8 7 4 6 10 3 13 2 9 11
14 7 12 9 2 13 10 11 6 5 3 8 1 4
11 14 10 2 5 9 8 12 7 4 3 1 6 13

19
Gob Lmith
Fob Smith
Hob Fmith
Uob Mmith
Rob Wmith
Rob Qmith
Qob Cmith
Nob Amith
Iob Lmith
Xob Dmith
Dob Amith
Pob Qmith
Oob Xmith
Rob Dmith
Job Amith
Hob Emith
Uob Cmith
Cob Amith
Aob Omith
1 10 2 9 17 15 16 12 8 18 5 11 19 7 6 3 4 13 14
12 8 6 2 17 4 14 19 13 16 15 18 10 1 3 5 11 9 7
13 3 6 5 16 15 9 19 10 4 8 11 1 7 12 18 17 14 2
10 4 7 14 6 5 19 12 3 18 8 17 2 15 9 1 13 16 11
5 10 7 1 3 4 6 18 11 2 19 14 15 12 16 9 13 17 8
7 15 19 1 10 5 14 13 4 8 12 2 6 16 3 9 11 18 17
5 12 16 19 2 8 10 18 13 7 9 17 3 14 4 1 15 11 6
18 4 7 15 11 10 3 13 1 16 9 17 14 5 8 6 19 12 2
14 3 11 17 16 13 12 4 6 19 2 5 18 15 9 8 1 10 7
6 19 13 5 11 4 9 15 16 12 3 18 10 14 7 8 17 2 1
10 16 11 1 5 6 4 8 2 19 12 18 13 3 17 15 7 9 14
14 3 10 16 15 18 5 2 7 13 12 8 9 19 4 6 1 11 17
3 5 11 1 10 2 12 7 19 15 8 6 9 4 13 16 18 17 14
17 3 10 4 5 2 13 6 8 7 16 11 15 12 1 19 14 18 9
6 2 4 9 5 19 10 15 16 14 18 13 11 7 1 17 8 3 12
17 8 16 4 9 12 18 2 15 19 6 1 5 13 10 7 3 11 14
14 9 8 4 12 18 11 19 6 3 17 5 7 1 2 16 13 15 10
18 4 3 2 19 17 1 16 5 9 10 11 6 15 13 8 14 7 12
6 4 16 14 3 15 1 8 5 17 19 18 10 9 2 12 13 7 11
19 5 2 10 9 16 7 18 11 13 4 8 12 1 17 15 6 14 3
17 19 16 7 12 13 18 1 9 2 5 14 11 10 8 3 15 6 4
6 8 13 11 1 15 17 16 2 4 12 7 14 18 3 5 10 19 9
4 17 7 14 3 1 18 6 2 16 11 13 10 15 12 8 19 5 9
5 2 15 3 16 9 11 13 6 14 1 17 12 10 7 8 18 4 19
16 11 7 3 15 10 6 8 5 4 17 2 12 9 18 19 1 13 14
18 2 7 17 11 16 4 15 13 3 9 1 5 14 10 12 8 19 6
7 18 11 2 19 1 16 6 5 12 3 17 13 9 15 8 14 4 10
6 16 2 3 5 13 8 4 18 7 17 9 1 15 19 14 11 10 12
15 5 14 2 11 9 4 7 6 13 10 8 16 3 17 12 18 19 1
13 1 14 16 8 12 19 7 11 17 4 3 2 6 5 15 10 9 18
7 15 6 19 4 13 14 10 2 3 5 17 16 12 1 18 11 9 8
1 19 4 10 11 8 15 9 6 18 16 5 17 13 14 7 3 12 2
7 5 8 13 4 10 11 2 6 15 19 12 1 14 17 16 3 18 9
7 19 4 14 3 15 17 11 2 5 9 8 12 1 16 10 6 18 13
13 18 14 10 11 15 1 2 12 9 4 5 6 16 3 7 19 17 8
12 19 15 1 14 18 4 10 13 5 7 6 16 8 17 9 11 3 2

7
Vob Cmith
Dob Rmith
Fob Imith
Nob Lmith
Pob Kmith
Aob Hmith
Yob Kmith
5 6 2 1 4 3 7
1 2 6 3 5 7 4
7 3 2 6 4 5 1
5 6 3 1 7 4 2
3 1 7 6 2 4 5
2 4 6 3 7 5 1
5 4 7 6 1 2 3
2 1 7 4 3 5 6
4 5 6 3 7 2 1
6 2 1 3 5 4 7
2 4 6 1 7 3 5
1 3 2 7 6 5 4
3 5 1 7 6 4 2
7 1 6 4 2 3 5
1 4 6 2 3 7 5
2 1 6 7 3 4 5
7 4 3 5 6 1 2
7 1 4 2 3 5 6
7 5 4 3 2 6 1
1 4 2 7 3 5 6
6 1 7 5 4 3 2
7 2 5 6 3 4 1
3 5 4 6 2 7 1
4 2 1 7 5 3 6
7 5 4 6 1 2 3
4 2 5 7 1 3 6
5 4 6 3 2 7 1
3 7 2 5 6 1 4
4 6 1 3 7 2 5
3 1 2 4 7 6 5
5 3 2 6 7 1 4
3 6 4 2 1 7 5
7 3 2 6 5 1 4
7 6 4 5 3 2 1
6 1 3 5 7 4 2
2 7 6 5 3 1 4
3 2 4 1 6 7 5
2 3 1 4 7 6 5
1 6 5 4 2 3 7
1 3 2 4 5 6 7
5 7 6 3 4 1 2
1 4 3 5 7 6 2
2 7 6 1 5 4 3
3 6 5 7 4 1 2
5 3 4 7 1 6 2
7 2 3 5 1 6 4
4 7 2 3 5 1 6
2 5 1 3 7 6 4
2 6 5 3 7 4 1
1 5 7 2 4 3 6
3 4 7 1 5 2 6
7 1 4 5 2 3 6

20
Qob Rmith
Yob Hmith
Fob Amith
Uob Imith
Job Lmith
Tob Pmith
Eob Mmith
Dob Dmith
Nob Kmith
Hob Wmith
Iob Emith
Hob Wmith
Fob Xmith
Iob Bmith
Mob Vmith
Vob Gmith
Aob Qmith
Yob Emith
Hob Amith
Dob Mmith
15 1 18 2 4 7 6 19 10 20 5 11 3 12 14 17 8 13 16 9
18 6 4 7 19 1 2 13 16 20 8 5 17 3 11 12 14 10 15 9
5 8 4 19 20 7 16 12 13 3 1 6 14 18 17 9 11 2 15 10
19 18 14 10 2 12 4 16 1 15 7 8 6 17 3 11 13 5 9 20
12 18 15 3 11 13 6 5 19 2 20 4 7 16 9 1 17 8 14 10
12 10 17 3 14 4 18 13 8 6 20 1 5 7 2 19 16 11 9 15
14 1 7 2 4 20 8 10 3 12 17 19 16 15 11 13 5 18 6 9
1 19 2 20 7 16 10 6 17 3 9 15 8 12 4 18 14 13 11 5
7 6 18 14 19 13 3 17 5 9 2 1 20 10 4 12 16 8 11 15
19 15 11 10 12 14 9 17 7 5 2 8 6 16 3 18 13 20 4 1
5 12 3 20 17 9 15 19 2 14 11 7 16 6 4 13 10 8 1 18
3 14 6 15 4 11 18 20 10 9 13 5 7 1 17 12 16 2 19 8
1 9 19 6 14 2 13 16 18 5 8 20 15 11 4 3 7 12 10 17
8 2 13 6 11 15 10 16 18 3 19 1 14 20 17 9 5 7 4 12
11 15 1 4 3 14 20 16 7 5 9 17 12 8 13 10 6 18 2 19
15 11 7 16 2 6 14 9 3 17 8 10 20 12 5 1 18 4 13 19
20 4 12 17 11 2 19 7 9 14 1 6 18 10 13 16 5 8 15 3
17 11 13 16 20 6 8 10 5 19 9 4 15 12 18 3 1 7 2 14
4 20 1 14 18 6 15 11 2 7 5 19 3 13 17 8 9 12 10 16
16 11 19 13 9 2 4 18 3 7 14 8 10 20 6 17 5 15 12 1
3 14 16 15 17 11 20 9 5 12 10 7 8 1 13 6 18 4 19 2
20 8 2 14 4 17 6 12 13 16 18 9 5 7 1 10 19 11 3 15
9 6 19 8 17 13 12 4 20 11 1 5 16 3 10 18 15 2 14 7
12 20 17 9 11 1 14 15 8 16 6 2 4 19 18 13 3 5 7 10
15 3 5 1 19 6 20 2 8 4 17 16 13 18 14 11 9 10 7 12
20 4 9 13 16 10 15 3 8 19 7 1 18 5 11 17 2 6 12 14
20 9 1 19 10 8 4 3 5 13 17 12 2 18 15 6 7 14 16 11
3 12 15 20 17 2 13 10 18 5 14 11 8 16 6 7 9 4 1 19
1 8 9 4 2 19 7 14 16 12 11 6 20 13 18 15 17 5 10 3
1 16 17 12 13 5 19 20 10 15 6 3 11 8 4 14 18 7 2 9
2 14 5 18 3 1 20 8 19 15 10 9 6 12 17 11 7 16 13 4
17 11 13 4 10 14 1 16 2 5 12 18 3 15 6 8 9 20 19 7
1 4 5 11 18 3 13 10 2 8 19 20 14 7 15 17 6 16 12 9
18 20 10 7 1 2 6 17 11 14 4 5 9 12 8 3 19 15 13 16
8 5 20 15 18 17 4 2 16 13 1 12 9 11 14 6 7 19 10 3
1 8 11 20 3 5 16 13 14 2 6 9 10 12 7 15 19 18 4 17
12 8 16 4 15 20 10 19 18 6 3 13 2 17 14 11 9 7 5 1
20 5 15 9 19 8 17 16 11 18 6 13 4 3 1 10 2 7 14 12
19 6 9 14 2 4 11 3 12 8 17 13 20 5 18 7 15 16 1 10
12 20 2 4 10 6 1 16 11 14 8 7 9 5 18 13 19 17 3 15
15 1 7 8 12 10 4 20 18 16 6 9 17 2 3 14 19 11 13 5
16 18 9 1 5 10 8 11 14 3 12 13 7 17 20 2 19 6 15 4
13 10 2 16 4 15 1 6 5 11 14 17 12 7 20 9 19 8 18 3
19 18 2 14 6 16 12 5 7 13 15 3 10 9 11 17 4 20 8 1
18 6 4 13 16 5 20 9 3 1 17 19 10 2 7 11 15 12 8 14
2 18 16 8 15 11 1 9 3 14 19 7 17 12 6 20 5 4 10 13
16 17 3 4 2 15 8 1 6 12 19 14 10 13 5 20 18 7 9 11
7 1 13 6 4 9 17 18 16 2 5 14 15 11 8 10 12 20 3 19
7 19 18 6 13 14 9 16 8 2 20 10 12 1 11 4 3 15 17 5
4 19 20 6 12 1 7 16 18 10 8 14 5 11 2 17 3 9 15 13
14 11 3 12 8 5 2 16 9 19 13 4 7 17 10 18 6 1 15 20
9 7 17 12 11 8 14 19 15 6 2 20 3 5 1 4 16 13 18 10
9 5 12 14 20 18 17 6 8 7 3 16 10 4 15 2 11 19 13 1
13 7 11 18 3 12 20 14 17 5 15 2 9 16 4 6 1 8 19 10
1 5 17 9 16 7 3 12 19 14 6 2 18 4 15 8 20 10 11 13
14 18 20 4 9 3 7 17 6 11 2 13 10 5 19 16 15 1 8 12
13 14 16 15 17 6 18 8 20 12 10 1 5 3 11 7 9 4 19 2
12 8 4 2 6 11 20 13 1 9 14 17 7 5 10 16 15 18 3 19

19
Uob Jmith
Eob Hmith
Nob Rmith
Zob Ymith
Yob Umith
Oob Tmith
Mob Mmith
Gob Hmith
Pob Hmith
Cob Hmith
Oob Xmith
Hob Jmith
Vob Cmith
Hob Kmith
Nob Fmith
Rob Nmith
Nob Qmith
Fob Wmith
Xob Umith
18 14 17 15 3 16 12 8 10 11 5 2 1 7 9 19 13 6 4
15 3 13 6 10 1 2 7 4 14 11 17 16 9 18 19 12 5 8
1 4 7 13 6 2 9 19 17 16 10 14 5 12 15 18 3 11 8
4 5 13 17 14 15 1 2 18 8 6 12 3 16 11 9 7 10 19
5 13 3 14 4 7 1 9 2 8 15 11 12 16 17 6 18 19 10
18 4 12 1 17 7 6 11 16 13 14 2 3 19 10 5 8 9 15
16 9 6 1 19 12 2 14 13 8 3 7 10 4 17 15 18 5 11
13 19 11 14 9 8 17 15 16 3 1 18 7 10 6 2 5 4 12
10 19 3 14 2 16 9 15 5 17 1 12 8 18 13 11 6 7 4
19 3 12 13 8 6 15 9 18 5 7 16 17 2 14 1 10 11 4
19 17 1 3 16 9 5 2 18 11 6 12 4 15 7 14 8 10 13
13 1 18 8 19 10 4 15 7 9 3 14 11 5 12 6 2 17 16
9 12 15 17 19 3 4 16 13 7 8 10 2 6 1 18 11 14 5
8 14 4 1 16 10 2 11 6 3 5 19 18 17 13 9 15 12 7
6 8 2 15 5 10 7 12 13 11 3 14 17 19 18 1 4 9 16
18 8 7 6 5 19 12 4 13 9 2 15 3 14 1 17 11 10 16
18 17 3 16 4 7 9 2 8 5 15 11 6 19 10 14 13 1 12
17 11 1 13 14 7 15 6 5 9 2 12 18 8 10 19 16 3 4
2 13 17 6 12 10 11 15 16 7 19 4 3 8 9 18 5 1 14
2 12 13 16 15 1 8 14 17 3 7 19 6 9 18 10 4 11 5
11 7 8 16 6 15 9 2 10 17 19 13 18 4 14 12 1 5 3
8 1 3 17 11 9 7 16 4 14 2 12 10 18 13 15 19 5 6
16 12 8 1 6 10 3 7 13 19 11 2 5 9 17 14 18 4 15
7 1 11 3 15 17 9 16 8 13 4 19 10 6 14 5 2 18 12
5 7 4 14 12 16 11 19 2 6 8 13 18 1 17 3 9 10 15
1 2 18 11 19 4 12 3 7 14 9 15 17 13 8 6 5 10 16
3 5 11 15 1 13 18 7 6 14 17 12 8 4 10 19 2 9 16
15 4 17 5 11 9 18 8 6 10 13 16 1 2 3 19 14 7 12
5 17 16 10 8 9 2 14 12 19 11 4 13 1 18 3 7 6 15
7 6 10 13 9 15 2 12 3 1 19 11 16 4 14 5 17 8 18

7
Bob Kmith
Dob Qmith
Job Tmith
Lob Omith
Fob Umith
Vob Pmith
Zob Xmith
3 7 4 2 6 1 5
2 1 6 5 7 3 4
7 1 4 2 3 6 5

13
Xob Amith
Cob Ymith
Uob Hmith
Fob Imith
Eob Nmith
Xob Nmith
Tob Omith
Gob Xmith
Pob Lmith
Qob Xmith
Oob Amith
Tob Ymith
Vob Rmith
3 1 10 2 8 11 9 4 6 7 12 5 13
6 1 11 9 12 4 2 7 5 8 13 3 10
7 10 11 4 3 12 2 5 13 6 1 8 9
6 7 4 13 1 5 10 3 11 9 8 12 2
4 11 5 12 13 7 6 3 2 10 8 9 1
1 9 8 11 5 6 12 13 10 4 7 3 2
6 12 5 4 7 10 8 2 9 13 3 11 1
7 2 3 13 5 10 11 4 1 12 6 9 8
11 3 2 8 10 5 1 9 7 6 12 4 13
8 9 11 2 10 4 5 6 12 1 7 13 3
8 9 4 1 2 5 3 13 10 12 11 6 7
3 7 1 12 6 2 13 10 8 9 4 11 5
13 12 3 10 8 2 7 4 5 11 1 9 6
5 1 10 12 2 13 3 7 8 9 6 4 11
9 5 7 4 8 13 11 6 2 3 10 12 1
3 4 9 13 2 12 11 8 10 7 5 6 1
1 4 12 9 6 10 13 2 5 11 7 3 8
7 3 10 8 6 5 11 2 1 13 9 4 12
6 3 12 7 1 11 2 10 4 8 13 9 5
1 4 2 5 9 11 10 13 8 3 12 7 6

8
Hob Vmith
Rob Jmith
Pob Gmith
Zob Amith
Nob Cmith
Sob Ymith
Yob Hmith
Aob Vmith
8 4 2 3 6 5 1 7
5 8 4 6 7 2 3 1
7 4 3 1 5 6 8 2
8 5 3 6 7 1 2 4
7 6 2 3 4 5 1 8
5 2 6 7 3 1 4 8
3 4 8 5 2 7 1 6
1 8 5 2 4 6 7 3
1 2 5 3 8 7 6 4
7 6 8 4 1 2 3 5
3 8 5 1 6 2 4 7
8 6 5 7 1 3 2 4
8 3 2 7 5 6 1 4
6 4 2 1 8 7 5 3
8 5 3 1 4 6 7 2
3 8 7 4 1 2 6 5
1 2 6 4 7 5 8 3
7 5 1 4 8 6 2 3
3 2 8 6 5 7 4 1
7 8 5 1 3 2 6 4
3 7 8 4 1 5 6 2
1 7 4 6 3 5 8 2
3 7 2 8 4 1 6 5
7 6 2 1 5 3 4 8
4 6 7 2 1 5 3 8
3 5 2 6 7 4 8 1
4 6 7 3 1 5 8 2
3 4 2 1 6 8 7 5
5 7 1 8 2 4 6 3
4 6 7 1 2 8 5 3
2 1 4 3 8 7 6 5
2 8 7 4 6 5 3 1
1 7 8 4 6 5 3 2
1 7 3 2 6 8 4 5
5 4 2 6 1 8 7 3
7 8 4 2 5 3 6 1
1 8 2 7 5 4 3 6
4 7 8 3 2 5 1 6
1 6 4 2 3 5 8 7
8 4 2 6 7 3 5 1
1 5 6 8 2 3 4 7
3 1 2 6 4 7 5 8
1 8 7 4 5 3 2 6
7 3 4 2 6 8 5 1
2 8 5 1 6 3 4 7
5 4 6 7 1 8 3 2
6 3 4 1 5 7 8 2
6 2 4 7 1 5 8 3
8 6 5 4 7 1 3 2
3 8 4 2 6 5 7 1
6 2 3 1 4 5 8 7
1 6 3 8 5 2 4 7
2 6 7 3 1 8 5 4
2 5 7 1 3 6 4 8
1 5 2 6 4 8 7 3
8 5 4 7 6 2 1 3
8 6 3 1 2 5 4 7
7 3 4 2 6 1 8 5
8 7 3 1 4 2 5 6
5 4 2 1 7 8 3 6

6
Kob Umith
Kob Pmith
Xob Qmith
Mob Mmith
Gob Qmith
Hob Ymith
4 5 1 3 6 2
6 3 1 4 2 5
4 5 2 3 6 1
4 3 1 6 2 5
1 5 3 2 6 4
4 3 1 5 2 6

3
Iob Cmith
Oob Wmith
Rob Pmith
1 2 3
2 1 3
1 2 3
2 3 1
1 3 2
2 3 1
1 2 3
2 3 1
1 3 2
1 2 3
1 2 3
2 3 1

14
Job Omith
Wob Imith
Yob Bmith
Nob Wmith
Uob Gmith
Qob Amith
Qob Hmith
Fob Nmith
Fob Hmith
Kob Wmith
Zob Smith
Rob Omith
Eob Hmith
Yob Mmith
2 5 7 9 13 6 1 11 12 3 4 10 14 8
12 5 7 3 10 2 9 6 8 4 14 1 11 13
1 2 12 11 5 6 4 13 7 14 8 3 10 9
11 4 14 2 7 1 5 6 3 12 10 13 8 9
11 8 6 12 2 7 10 1 4 13 3 9 5 14
7 3 9 6 4 12 8 5 10 11 2 14 1 13
2 4 10 6 3 8 13 7 11 12 14 5 9 1
5 8 7 2 13 1 14 11 10 3 12 9 4 6
10 11 13 2 9 14 7 5 1 12 6 3 8 4
14 8 7 2 1 11 10 3 4 9 5 6 13 12
4 9 3 1 7 14 12 10 13 6 8 11 2 5
13 11 4 8 12 5 7 6 14 9 3 10 1 2
1 2 9 7 13 6 10 3 11 4 8 5 14 12
6 7 9 3 12 11 1 5 2 4 8 13 10 14
2 12 1 4 8 10 5 9 6 11 7 14 13 3
9 13 11 2 8 14 12 5 4 1 6 3 10 7
6 8 5 9 7 12 11 2 3 4 14 13 1 10
4 13 6 11 5 3 12 9 10 1 7 2 14 8
13 6 8 11 4 9 10 12 5 3 1 14 2 7
4 11 10 6 14 7 2 13 5 9 3 12 8 1
1 4 11 3 7 12 14 5 2 13 6 10 9 8
9 4 11 5 12 2 1 6 13 10 8 3 14 7
5 12 11 7 2 9 3 14 1 6 13 4 8 10
13 12 11 8 10 5 14 6 7 9 4 1 3 2
11 4 13 12 10 2 8 1 9 6 7 14 5 3
8 11 9 4 5 6 14 13 1 3 10 2 7 12
12 9 7 14 2 13 10 3 8 5 4 1 11 6
8 4 11 14 6 5 12 2 9 3 13 1 10 7
1 9 11 8 6 5 14 13 4 3 12 10 2 7
11 6 5 1 14 12 4 2 10 8 13 7 9 3
13 3 12 4 14 5 6 10 1 8 2 7 11 9
8 7 2 13 3 12 1 6 9 4 10 14 5 11
1 13 4 3 10 5 6 11 9 14 7 12 2 8
6 2 14 11 7 9 5 1 10 8 13 4 12 3

2
Uob Wmith
Pob Ymith
2 1
2 1
2 1
1 2
2 1
1 2
1 2
1 2
2 1
2 1
2 1
1 2
2 1
1 2
1 2
1 2
2 1
1 2
1 2
2 1
2 1
2 1
1 2
1 2
2 1
1 2
2 1
2 1
2 1
1 2
1 2
2 1
1 2
2 1
2 1
1 2
2 1
2 1
1 2
2 1
1 2
2 1
2 1
1 2
1 2
2 1
2 1
1 2
1 2
1 2

17
Tob Umith
Gob Xmith
Qob Qmith
Oob Mmith
Vob Imith
Job Umith
Qob Rmith
Zob Vmith
Tob Nmith
Aob Tmith
Sob Bmith
Gob Smith
Pob Zmith
Wob Amith
Cob Vmith
Zob Fmith
Iob Lmith
6 17 11 4 10 9 12 13 15 16 1 3 8 5 2 14 7
3 11 8 10 15 17 7 9 16 1 12 4 14 6 5 13 2
1 10 17 4 8 7 15 16 6 11 5 12 9 2 13 14 3
2 16 5 13 1 12 17 7 8 15 4 14 3 11 6 10 9
16 11 2 17 8 5 10 9 7 4 1 3 6 15 14 13 12
11 15 13 4 6 16 10 3 8 5 7 17 1 14 12 9 2

16
Sob Amith
Kob Ymith
Nob Xmith
Wob Wmith
Fob Rmith
Fob Zmith
Dob Mmith
Eob Rmith
Vob Omith
Vob Tmith
Zob Mmith
Oob Emith
Nob Smith
Nob Qmith
Zob Jmith
Kob Cmith
15 5 11 13 2 6 7 3 1 9 12 4 14 16 10 8
15 4 10 14 5 2 1 13 3 8 12 11 7 16 9 6
5 4 8 9 14 1 15 3 2 16 11 7 10 6 12 13
11 6 8 7 4 16 9 10 3 2 12 1 14 15 13 5
4 13 3 11 6 12 7 15 1 16 5 10 2 8 9 14
7 4 6 5 10 15 13 2 11 3 9 1 12 14 8 16
4 11 16 10 15 12 14 2 1 8 7 5 6 9 13 3
5 10 7 3 16 4 9 8 14 11 6 2 1 13 15 12
16 2 9 1 12 8 11 3 10 14 15 6 5 13 7 4
4 12 13 15 9 2 3 11 5 10 7 14 1 8 6 16
12 16 10 9 11 13 8 6 15 1 7 3 5 4 2 14
10 6 16 12 7 4 11 15 8 3 2 14 1 5 13 9
12 4 16 13 1 6 10 15 2 11 5 8 7 3 14 9
15 12 5 8 2 13 14 3 10 11 6 16 7 1 4 9
12 2 11 8 3 5 14 16 1 10 4 13 6 7 15 9
1 7 3 9 12 16 11 10 2 13 8 14 6 4 5 15
10 6 9 1 2 12 8 13 7 4 14 15 3 5 11 16
3 14 7 15 11 9 5 1 10 8 2 6 16 4 13 12
11 12 8 4 3 10 5 14 15 7 6 1 13 9 16 2
8 13 10 9 7 1 6 14 16 3 12 15 4 11 2 5
8 9 1 5 7 12 4 13 11 15 6 2 3 16 14 10
11 13 14 15 5 9 2 16 4 3 6 7 8 10 1 12
8 1 2 4 12 7 15 16 10 14 3 11 5 6 9 13
14 10 13 5 4 7 15 1 11 9 6 8 3 16 12 2
10 9 8 2 12 7 16 4 3 13 6 11 1 5 15 14
9 6 8 1 11 10 3 13 14 15 16 2 5 4 12 7
13 7 6 2 5 12 8 3 4 11 16 9 14 15 1 10
14 2 7 3 4 13 5 16 12 10 1 6 11 9 8 15
12 7 15 13 2 3 1 6 11 16 14 8 4 9 10 5
11 2 16 5 10 3 7 9 12 14 15 13 4 6 8 1
9 10 4 8 13 15 14 3 7 11 12 6 16 2 5 1
15 7 14 9 1 11 6 2 4 12 8 10 13 3 16 5
12 11 15 4 13 16 7 6 9 1 2 5 10 14 8 3
10 1 2 16 4 15 11 14 8 13 3 12 6 7 9 5
2 5 8 16 1 11 7 3 13 15 6 4 12 14 10 9

2
Fob Emith
Yob Vmith
2 1
2 1
1 2
2 1
2 1
2 1
1 2
1 2
1 2
1 2
1 2
1 2
2 1
1 2
1 2
1 2
2 1
2 1
1 2
2 1
2 1
1 2
2 1
2 1
1 2
1 2
2 1
1 2

5
Eob Zmith
Iob Lmith
Mob Umith
Nob Cmith
Bob Fmith
5 4 1 2 3
2 4 5 3 1
1 3 4 2 5
2 5 1 3 4
5 3 2 1 4
5 1 2 3 4
1 3 5 4 2
4 3 5 1 2
4 2 3 5 1
5 1 2 4 3
1 4 5 2 3
3 2 5 1 4
3 1 2 5 4
5 2 1 3 4
4 5 3 1 2
5 3 1 2 4
5 4 1 3 2
5 3 2 4 1
4 2 5 3 1
1 3 4 5 2
4 5 2 1 3
3 2 5 4 1
2 4 3 1 5
2 3 4 1 5
5 2 4 1 3

1
Job Emith
1
1
1
1
1
1
1
1
1
1
1
1
1
1
1
1
1
1
1
1
1
1
1
1
1
1
1
1
1
1
1
1
1
1
1
1
1
1
1
1
1
1
1
1
1
1
1
1
1
1
1
1
1
1
1
1
1

2
Xob Dmith
Iob Lmith
2 1
2 1
2 1
1 2
1 2
1 2
1 2
2 1
1 2
2 1
1 2
2 1

17
Uob Wmith
Yob Hmith
Wob Rmith
Yob Omith
Mob Tmith
Mob Hmith
Pob Tmith
Uob Mmith
Eob Imith
Qob Imith
Lob Omith
Wob Omith
Uob Mmith
Yob Vmith
Dob Jmith
Rob Jmith
Rob Vmith
11 10 6 15 7 13 3 5 2 8 16 17 4 9 1 12 14
6 9 1 12 2 16 7 11 10 5 4 14 13 17 15 8 3
1 14 9 10 7 15 12 8 5 4 11 6 16 17 13 3 2
5 7 15 10 14 2 17 8 12 16 1 9 13 3 6 11 4
9 15 17 10 4 14 13 6 1 2 11 16 12 3 8 7 5
3 8 9 6 7 4 14 13 11 5 1 2 10 15 16 17 12
11 7 6 17 1 8 9 14 4 15 2 12 10 3 13 5 16
13 17 6 15 5 3 11 12 16 7 2 10 4 9 8 14 1
2 1 14 9 3 6 7 16 15 17 4 12 5 8 11 10 13
11 15 5 8 7 12 14 3 10 1 9 6 17 4 16 13 2
11 2 1 7 17 9 10 6 15 14 5 4 13 16 12 3 8
11 15 4 7 12 10 2 3 6 8 16 14 1 5 9 17 13
15 9 4 16 1 14 3 7 12 11 10 8 2 17 5 13 6
12 13 2 9 11 16 4 7 6 10 3 15 17 8 5 14 1
9 14 8 3 5 16 13 12 15 7 2 6 11 1 17 10 4
3 9 13 6 2 10 17 5 14 15 11 8 1 7 4 16 12
16 6 1 15 8 13 4 17 7 9 3 14 2 5 12 11 10
5 10 16 1 3 2 7 13 14 6 12 9 17 4 11 15 8
14 10 7 8 5 17 13 9 2 16 6 12 1 15 11 3 4
2 17 11 14 3 4 7 15 16 12 6 10 9 1 5 8 13
17 6 1 10 14 2 3 16 4 7 11 8 13 12 15 9 5
9 8 6 4 2 5 14 7 12 16 13 1 10 3 11 17 15
4 11 10 1 12 2 9 3 7 17 16 14 6 5 8 13 15
9 8 12 3 15 7 4 16 10 13 2 6 5 14 1 11 17
13 6 16 15 4 2 11 8 5 7 1 17 3 9 10 12 14
9 12 5 7 8 1 3 13 17 14 2 16 6 10 11 4 15
14 6 7 4 5 12 17 1 11 2 13 15 3 10 8 9 16
2 6 14 4 7 9 16 15 5 3 11 1 17 10 13 12 8
9 17 15 2 4 1 3 10 7 6 5 11 14 12 8 13 16
3 11 4 7 1 6 10 9 17 15 2 14 12 13 8 16 5
4 2 6 1 14 7 8 12 5 9 13 3 16 11 10 15 17
9 5 15 8 17 16 13 11 10 3 1 14 7 4 6 12 2
10 6 8 7 12 14 1 9 11 2 3 15 5 16 17 4 13
17 15 11 6 1 5 2 13 8 12 9 4 7 10 16 14 3
12 4 13 14 11 6 17 10 16 3 9 5 7 15 2 1 8
11 1 4 6 7 9 15 10 12 16 17 8 5 14 2 13 3
4 10 1 9 13 8 5 2 17 12 14 6 7 3 11 15 16
9 12 7 6 17 5 3 1 16 2 15 14 10 11 4 13 8
3 1 10 4 5 16 15 8 2 7 12 17 6 11 9 13 14
2 12 8 6 11 13 15 10 4 14 1 17 7 5 3 16 9
11 15 2 14 1 4 8 3 7 13 5 12 9 10 16 17 6
11 7 6 13 1 14 12 3 5 4 10 8 15 16 2 17 9
3 10 6 16 15 13 12 8 11 1 17 4 9 2 7 5 14
5 7 15 9 4 6 17 11 3 2 14 12 13 8 10 16 1
9 11 12 5 3 4 14 15 2 16 10 8 1 17 13 6 7
17 13 5 8 4 15 9 7 6 1 3 11 10 2 14 12 16
10 2 11 17 1 5 7 4 13 8 16 6 9 15 3 14 12
5 15 11 10 14 9 16 13 4 2 7 17 12 8 3 1 6
1 15 17 16 8 13 4 3 6 2 12 14 9 10 11 5 7
9 11 10 1 15 2 7 8 3 16 12 5 17 4 14 6 13
8 3 13 16 9 14 11 15 2 17 5 7 1 4 12 6 10
15 11 9 1 5 6 3 2 13 10 7 12 16 4 14 17 8
7 2 11 14 8 9 16 3 12 15 17 1 5 10 4 13 6
9 13 17 15 14 6 10 12 3 8 11 1 4 7 2 5 16
9 14 4 2 5 10 7 12 17 16 13 11 3 8 15 1 6
14 16 2 5 12 11 8 15 9 13 1 3 7 6 17 10 4

12
Wob Nmith
Qob Fmith
Vob Smith
Tob Vmith
Fob Emith
Nob Ymith
Dob Umith
Rob Imith
Fob Emith
Hob Wmith
Xob Lmith
Eob Wmith
10 8 9 11 12 1 3 5 7 6 2 4

8
Bob Cmith
Cob Emith
Eob Smith
Eob Kmith
Qob Dmith
Qob Bmith
Rob Tmith
Dob Hmith
3 2 8 6 4 1 5 7
7 2 1 3 5 8 6 4
6 5 4 7 1 2 8 3
4 1 7 8 3 2 5 6
1 5 8 3 7 2 4 6
2 6 7 4 1 3 8 5
4 3 7 6 1 2 8 5
1 3 2 7 5 4 8 6
1 8 7 2 6 4 5 3
8 6 4 7 3 2 1 5
6 3 1 5 2 4 8 7
1 4 6 2 8 5 3 7
5 2 7 8 3 1 4 6
8 5 6 7 4 3 2 1
5 2 1 8 7 6 4 3

18
Rob Wmith
Fob Mmith
Job Bmith
Uob Rmith
Qob Bmith
Eob Rmith
Lob Xmith
Yob Vmith
Vob Emith
Pob Jmith
Job Cmith
Bob Wmith
Wob Wmith
Dob Tmith
Tob Omith
Pob Jmith
Tob Cmith
Eob Qmith
15 7 14 6 2 18 3 8 16 5 12 17 10 9 13 11 1 4
6 2 12 1 5 14 10 8 7 13 4 3 9 17 18 11 15 16
3 15 9 14 10 7 17 8 18 6 12 2 5 16 11 13 4 1
18 11 1 2 14 7 17 5 10 9 3 4 15 8 13 6 16 12
2 6 11 14 16 4 13 5 12 18 7 3 8 10 9 1 17 15
5 7 3 8 12 16 4 13 15 10 2 17 14 6 9 11 1 18
15 1 14 2 12 8 16 5 18 10 17 4 13 9 3 6 11 7
10 13 2 11 17 7 14 9 16 12 15 1 18 4 6 8 5 3
6 5 17 4 8 1 16 13 12 7 3 14 2 9 11 10 15 18
11 5 12 6 4 18 14 10 3 1 7 17 2 13 8 16 9 15
7 5 2 3 9 13 17 12 16 15 11 6 14 4 8 1 10 18
18 15 5 14 17 9 10 6 7 2 13 3 4 11 16 8 12 1
5 4 9 7 6 18 8 13 1 16 14 10 3 11 2 17 12 15
15 11 16 5 7 4 1 17 2 3 18 8 13 12 9 6 14 10
4 16 17 14 7 5 12 13 8 18 1 3 2 10 11 9 6 15
9 3 4 8 6 5 7 11 15 13 10 18 14 16 12 1 17 2
3 9 16 1 2 14 17 15 13 4 7 10 12 6 11 8 5 18
3 16 12 5 4 18 1 17 13 14 7 9 8 10 11 2 6 15
12 13 3 8 17 5 9 14 1 7 10 15 11 4 2 16 18 6
7 9 10 3 5 17 13 18 11 15 16 6 2 8 14 4 1 12
13 11 12 3 9 4 14 6 7 5 2 10 8 16 15 17 18 1
7 4 3 16 1 2 6 8 13 9 14 5 10 15 12 11 18 17
15 2 6 8 1 17 7 3 18 4 13 9 12 16 14 11 10 5
13 18 1 6 10 14 3 11 5 15 4 8 16 7 9 2 12 17
9 2 15 14 10 11 3 4 17 7 1 8 5 12 16 13 18 6
13 8 1 7 11 4 2 17 16 10 9 14 18 12 5 15 6 3
16 12 4 1 5 7 18 3 10 13 2 6 14 8 9 15 17 11
8 2 11 13 16 17 18 7 14 15 1 12 3 10 4 6 5 9
14 4 8 13 2 7 11 15 9 16 18 6 17 3 12 1 5 10
7 15 6 1 13 8 12 18 5 3 9 11 4 2 16 14 10 17
1 9 10 16 17 15 14 6 7 11 2 4 18 13 5 8 3 12
18 2 13 4 11 3 15 17 5 7 1 8 16 14 12 9 6 10
6 1 11 7 9 16 14 2 4 13 8 10 17 15 12 3 5 18
10 11 18 15 1 7 12 14 2 8 17 4 13 9 16 3 5 6
4 5 16 1 8 9 11 12 18 17 7 3 14 13 6 2 15 10
6 15 1 4 3 11 13 9 5 8 14 2 10 17 12 16 18 7
18 1 9 12 5 8 13 10 7 14 3 11 2 6 4 17 15 16
12 1 2 4 18 11 13 17 6 5 15 8 16 7 10 3 9 14
10 12 6 17 15 18 8 3 16 13 7 5 9 1 2 14 4 11
15 16 1 18 6 12 13 11 17 2 9 3 14 7 5 8 4 10
9 18 4 7 10 6 14 8 11 13 3 2 16 12 5 1 15 17
14 5 2 9 15 17 6 8 13 4 16 18 10 1 11 12 3 7
10 1 9 15 6 17 7 11 13 18 5 2 8 14 16 12 4 3
3 8 5 16 14 2 12 7 18 4 9 10 11 1 15 17 6 13
10 1 6 14 4 2 9 15 12 17 7 16 13 11 3 5 8 18

4
Pob Ymith
Bob Umith
Rob Qmith
Fob Vmith
2 3 4 1
1 2 4 3
3 4 1 2
2 1 3 4
3 4 2 1
1 3 2 4
4 3 1 2
3 4 2 1
3 1 2 4
4 1 2 3
3 4 2 1
3 2 1 4
3 4 1 2
2 3 1 4

5
Kob Amith
Uob Cmith
Pob Xmith
Cob Emith
Bob Nmith
2 4 1 5 3
2 4 1 3 5
4 5 2 1 3
5 2 1 4 3
2 5 4 1 3
3 4 5 1 2
1 3 4 5 2
1 5 3 4 2
3 4 2 1 5
3 4 5 1 2
5 2 1 3 4
3 5 1 4 2
2 4 1 3 5
3 4 1 5 2
1 5 3 2 4
4 2 3 1 5
2 3 1 4 5
1 3 4 5 2
3 4 1 2 5
5 4 3 2 1
4 2 5 1 3
1 3 2 4 5
4 1 3 5 2
1 2 4 5 3
5 1 2 3 4
3 1 4 2 5
1 3 4 2 5
5 1 3 2 4
3 5 2 4 1
2 3 4 1 5
4 3 5 2 1
2 3 4 5 1
1 5 3 4 2
2 1 3 4 5
4 5 2 1 3
1 3 5 2 4
3 1 5 2 4
4 5 3 2 1
3 2 4 5 1
2 1 4 5 3
1 3 2 5 4
1 4 3 2 5
1 2 5 4 3
4 2 5 3 1

9
Mob Amith
Pob Dmith
Oob Kmith
Fob Dmith
Tob Hmith
Job Rmith
Kob Jmith
Xob Xmith
Oob Umith
9 4 6 7 5 2 8 3 1
2 1 4 5 3 8 7 9 6
7 5 6 4 8 3 1 9 2
3 9 6 1 2 8 7 5 4
9 3 8 4 2 5 7 1 6
1 3 5 2 9 7 4 6 8
7 4 8 2 3 1 6 5 9
1 4 9 2 7 3 5 8 6
6 5 4 8 9 7 3 2 1
9 6 5 8 3 7 4 2 1
7 2 5 3 1 4 8 9 6
1 9 4 5 3 6 8 2 7
2 6 9 1 4 8 5 7 3
8 3 9 5 4 2 6 1 7
8 9 6 1 4 5 2 7 3
5 4 9 8 7 6 2 1 3
9 1 8 2 6 3 4 5 7
2 6 7 1 5 9 3 8 4
8 7 1 5 4 9 3 2 6
4 6 9 5 2 7 3 8 1
5 6 7 1 8 4 3 9 2
9 1 6 8 4 7 3 2 5
3 9 1 4 5 2 6 8 7
2 9 4 1 5 6 8 3 7
6 1 4 7 9 3 2 5 8
8 6 1 2 9 7 5 3 4
2 1 7 4 6 5 8 3 9
6 5 4 3 8 2 9 1 7
1 9 8 3 6 7 2 5 4
5 8 6 2 3 7 9 1 4
3 6 2 4 8 9 7 1 5
2 6 7 3 1 9 5 4 8
7 8 5 4 1 9 6 2 3
1 6 4 9 8 2 5 7 3
4 1 3 8 9 5 6 7 2
8 1 5 9 4 7 3 6 2
3 1 6 2 8 5 4 7 9
2 9 3 7 1 4 6 8 5
5 3 7 9 4 6 1 2 8
7 9 1 4 6 8 2 3 5
7 2 6 1 9 3 5 8 4
1 7 6 9 5 3 2 8 4
9 2 3 1 5 8 7 6 4
2 4 1 6 5 3 9 8 7
7 6 2 5 4 8 1 3 9
5 9 4 1 7 3 6 8 2
7 2 6 4 3 5 8 1 9
5 1 8 6 9 2 3 7 4
9 5 3 4 1 6 8 2 7

18
Xob Tmith
Dob Qmith
Nob Nmith
Sob Smith
Cob Fmith
Eob Cmith
Pob Nmith
Tob Xmith
Uob Bmith
Wob Xmith
Dob Amith
Qob Kmith
Aob Tmith
Qob Pmith
Sob Kmith
Yob Pmith
Wob Kmith
Xob Ymith
14 11 1 5 4 3 10 8 6 18 2 9 13 7 17 16 12 15
17 1 9 8 3 14 2 12 16 5 6 7 11 13 18 4 10 15
7 12 14 18 5 1 6 16 17 4 2 11 9 13 3 15 8 10
14 16 11 13 6 4 15 5 9 17 10 12 1 7 3 18 2 8
14 3 1 5 10 4 8 18 7 17 2 12 13 16 15 9 6 11
1 2 9 6 17 3 11 16 10 18 15 12 8 5 4 14 7 13
17 3 12 13 7 18 2 14 1 5 4 10 15 8 6 11 16 9
9 15 2 17 18 1 13 4 12 7 10 3 6 5 14 8 11 16
6 9 8 11 17 13 2 5 14 16 10 1 7 18 12 15 3 4
4 17 8 11 9 7 13 18 1 15 5 10 6 14 2 3 12 16
18 5 10 12 1 6 16 3 13 15 7 8 4 11 2 17 14 9
18 4 9 5 12 11 8 10 1 13 3 17 7 15 6 14 2 16
17 7 16 10 5 9 2 15 8 18 13 3 11 12 6 14 4 1
6 8 12 14 10 1 2 5 18 15 16 11 7 3 13 9 17 4
17 6 18 13 4 5 3 2 7 14 9 15 11 16 1 10 8 12
2 15 14 10 8 9 5 6 13 7 3 12 11 17 16 4 18 1
11 18 10 16 15 14 4 3 9 2 1 7 8 5 6 17 13 12
17 11 5 16 12 9 3 4 10 6 2 7 8 13 18 14 1 15
6 2 15 14 7 17 8 11 9 5 4 13 12 3 1 10 18 16
16 14 10 1 17 4 8 13 12 11 15 9 3 7 6 2 18 5
8 16 1 4 14 7 10 9 13 2 5 18 15 12 6 11 3 17
8 17 6 12 9 15 10 2 1 3 16 7 13 4 18 11 14 5
9 14 7 4 11 17 12 3 18 10 5 1 8 13 16 6 15 2
1 6 14 16 12 9 18 8 5 7 2 4 17 10 3 11 15 13
2 7 11 6 12 5 1 13 8 14 15 18 16 4 9 17 3 10
13 3 10 9 17 6 7 11 1 18 15 12 16 5 2 8 4 14
6 14 12 5 4 13 16 17 7 18 15 9 1 11 3 8 10 2
2 4 17 14 10 6 18 1 8 15 5 12 3 11 16 7 13 9
4 13 11 6 17 12 5 15 3 1 14 2 18 9 16 8 10 7
6 12 8 5 2 1 13 11 18 3 7 17 9 10 15 4 16 14
15 8 2 3 7 1 10 17 16 12 18 13 6 9 14 5 4 11
3 12 7 18 10 5 9 13 16 2 1 8 4 11 15 17 14 6
16 10 18 12 1 13 2 17 4 5 6 8 3 7 11 15 9 14
11 16 10 8 12 6 17 2 14 3 15 13 18 4 1 5 9 7
9 6 16 14 17 5 10 18 3 2 11 15 12 13 1 4 7 8

15
Eob Amith
Tob Bmith
Nob Qmith
Fob Kmith
Job Fmith
Fob Lmith
Iob Bmith
Xob Smith
Cob Bmith
Gob Pmith
Zob Jmith
Gob Smith
Qob Pmith
Yob Amith
Oob Zmith
6 3 9 10 8 2 14 7 11 15 12 4 1 5 13
4 2 8 7 3 5 1 14 12 6 9 11 13 15 10
5 13 4 15 7 6 3 2 11 9 1 8 12 10 14
11 4 9 8 7 14 10 3 6 2 1 15 13 12 5
4 7 11 3 2 5 13 14 15 10 6 12 9 8 1
1 7 5 14 2 8 13 12 11 4 10 3 6 9 15
1 8 9 5 15 12 3 2 10 4 13 11 6 14 7
6 10 2 3 4 15 9 7 14 11 12 5 8 13 1
6 1 15 9 13 11 12 8 10 5 3 4 2 7 14
9 1 4 3 12 11 15 2 14 6 10 7 13 8 5
13 12 14 8 4 2 5 7 3 6 11 9 1 15 10
6 9 7 5 12 3 14 8 13 11 15 10 1 4 2
9 1 4 6 8 14 3 2 10 12 7 5 15 13 11
14 15 4 3 5 13 2 12 9 6 7 8 1 10 11
3 12 14 2 5 4 8 7 6 1 9 11 13 10 15
14 10 6 1 11 8 15 13 3 9 2 12 7 4 5
3 9 7 14 15 6 5 10 12 4 11 2 13 8 1
10 11 2 13 3 1 9 7 8 15 12 14 5 4 6
14 15 12 8 6 3 9 5 7 4 11 13 1 10 2
14 7 10 6 12 3 9 1 8 5 11 15 2 4 13
5 15 3 9 11 2 1 8 7 4 14 10 12 13 6
1 14 12 13 11 2 5 7 10 4 9 8 3 15 6

7
Kob Rmith
Nob Tmith
Aob Tmith
Xob Smith
Hob Lmith
Pob Pmith
Iob Cmith
2 3 6 7 1 4 5
5 4 7 6 3 2 1
2 1 3 7 4 5 6
1 5 3 2 6 4 7
2 3 1 6 5 4 7
1 2 7 5 3 4 6
6 4 2 7 3 5 1
2 6 5 1 4 3 7
5 6 7 1 3 4 2
7 5 2 1 4 6 3
7 1 5 2 6 3 4
5 6 2 4 1 7 3
6 3 7 1 4 5 2
1 3 6 7 4 5 2
5 7 3 4 1 2 6
3 5 1 2 6 7 4
3 2 6 5 1 4 7
3 4 1 7 5 2 6
2 4 3 1 6 7 5
4 7 5 3 1 2 6
7 2 5 6 3 4 1
5 6 4 2 7 1 3
5 4 1 6 3 2 7
6 3 5 2 1 7 4
4 3 1 2 7 6 5
6 3 4 5 1 2 7
4 7 5 6 3 2 1
3 2 7 1 6 5 4
2 7 6 4 3 1 5
4 2 3 5 6 1 7
1 5 3 6 2 4 7
5 1 7 3 6 2 4
1 7 2 3 4 5 6
2 5 7 4 3 6 1
4 6 3 1 2 5 7

3
Qob Smith
Nob Amith
Zob Smith
2 3 1
3 2 1
3 1 2
3 1 2
1 3 2
2 1 3
1 2 3
1 2 3
3 2 1

17
Iob Pmith
Job Nmith
Nob Gmith
Wob Wmith
Cob Hmith
Dob Umith
Dob Smith
Fob Vmith
Job Hmith
Fob Omith
Cob Emith
Gob Dmith
Qob Umith
Hob Smith
Pob Wmith
Iob Qmith
Dob Amith
11 17 4 15 3 8 14 13 1 12 9 7 2 5 16 10 6
6 12 11 9 16 4 10 15 2 14 3 17 13 7 1 5 8
5 9 4 8 7 14 3 13 2 16 6 12 1 11 15 17 10
11 5 10 15 9 8 12 6 2 16 4 14 7 17 3 1 13
15 12 10 9 17 6 11 16 14 4 1 13 8 3 2 7 5
6 7 13 12 5 4 14 10 15 8 16 11 9 17 1 3 2
13 16 5 14 8 10 15 7 1 6 12 3 2 9 11 4 17
4 1 10 8 3 2 12 13 9 14 17 7 5 11 15 6 16
12 5 14 9 11 16 1 3 2 15 10 6 13 8 7 4 17
5 9 1 4 2 7 10 16 11 17 8 6 14 15 12 3 13
4 13 1 15 3 12 9 14 17 16 8 2 6 5 11 7 10
13 9 8 2 12 3 14 15 17 16 10 5 4 7 11 1 6
6 3 12 8 9 14 16 17 2 11 13 7 10 1 15 5 4
12 17 10 15 8 2 1 3 9 13 16 6 7 11 5 4 14
13 11 1 12 15 7 10 8 14 2 4 6 3 17 9 5 16
5 6 13 16 4 17 14 9 8 3 7 1 12 10 11 2 15
9 15 1 2 10 5 12 4 6 17 14 11 16 7 13 8 3
3 2 12 17 16 1 13 10 6 4 7 5 8 11 15 9 14
17 7 3 13 14 5 1 9 10 6 2 11 8 16 12 15 4
9 7 3 4 6 8 15 16 12 5 13 2 10 17 1 11 14
6 12 11 1 2 4 3 14 9 13 16 15 5 7 10 17 8
15 5 12 11 6 2 4 9 14 10 3 7 8 1 13 17 16
2 15 4 3 11 13 10 8 5 1 17 12 6 7 9 14 16
7 11 5 4 9 2 14 1 17 15 10 3 16 12 6 8 13
3 14 12 10 6 2 9 15 5 7 13 4 1 17 11 16 8
4 13 5 10 3 17 1 11 7 15 2 6 8 14 16 12 9
5 15 6 1 16 17 13 8 7 14 9 11 4 3 2 10 12
11 14 4 16 15 8 12 10 2 17 1 6 3 5 13 9 7
3 10 17 12 7 15 1 2 9 4 8 5 11 13 6 16 14
4 13 14 9 7 12 11 6 3 16 10 5 15 1 2 8 17
1 4 15 5 9 16 14 13 6 3 8 2 11 10 12 17 7
17 8 7 12 1 2 5 14 10 9 16 6 4 13 11 3 15
1 5 14 17 7 4 3 13 11 10 6 16 9 12 8 2 15
12 7 9 10 1 4 11 13 6 17 2 14 5 3 15 16 8
17 12 1 10 13 6 9 7 11 14 4 16 8 5 15 2 3
13 10 9 12 2 3 15 6 5 17 4 16 14 8 7 1 11
14 16 2 3 5 17 12 6 13 7 4 8 9 11 10 15 1
14 6 4 11 15 13 9 3 12 17 10 16 8 5 2 7 1
14 10 15 9 6 2 3 16 4 12 1 5 11 7 8 13 17
13 4 1 8 7 12 14 5 3 10 16 6 17 9 11 2 15
9 6 4 16 12 14 5 17 11 1 8 7 2 13 3 10 15
10 1 6 17 8 12 11 5 4 9 15 7 16 14 2 13 3
15 5 8 12 4 11 7 14 9 6 16 10 2 13 17 3 1
6 16 12 2 8 10 1 13 7 15 3 11 4 9 5 17 14
4 12 16 17 1 15 6 9 11 7 8 3 2 5 13 10 14
15 3 7 10 11 5 4 8 6 9 1 17 13 14 16 12 2
1 9 13 11 17 3 16 10 8 12 5 2 7 15 6 14 4
7 16 1 10 12 14 5 4 3 6 2 9 15 8 13 11 17
11 8 13 15 5 14 10 6 17 12 2 1 16 9 7 4 3

16
Yob Rmith
Job Omith
Gob Umith
Zob Amith
Mob Gmith
Wob Pmith
Rob Gmith
Lob Xmith
Aob Imith
Bob Gmith
Dob Kmith
Cob Qmith
Pob Tmith
Gob Jmith
Dob Kmith
Job Zmith
6 10 2 5 1 8 7 14 3 15 9 4 16 12 13 11
14 11 3 7 15 2 8 5 16 12 4 13 10 1 9 6
8 6 5 4 12 15 7 2 13 10 1 14 3 11 16 9
15 10 4 16 5 1 6 12 8 7 9 3 14 13 2 11
13 5 12 7 2 6 15 11 3 8 16 1 9 10 4 14
12 2 6 4 7 3 16 14 13 8 5 10 11 9 1 15
5 13 12 2 8 11 7 16 3 1 10 6 15 9 14 4

12
Cob Dmith
Lob Ymith
Tob Wmith
Bob Tmith
Yob Amith
Cob Cmith
Mob Imith
Eob Mmith
Pob Lmith
Oob Wmith
Tob Qmith
Xob Bmith
7 6 1 10 11 5 3 4 8 12 9 2
10 12 11 8 3 2 6 1 5 9 7 4
9 4 2 1 7 8 5 11 3 12 10 6
6 9 10 7 11 2 12 4 5 3 8 1
9 4 11 8 6 12 2 5 7 3 1 10
6 8 4 3 12 9 5 7 11 1 10 2
5 8 6 10 1 4 11 3 7 12 9 2
7 3 5 8 10 6 9 2 12 4 11 1
6 12 3 9 11 5 8 2 1 10 7 4
4 2 11 3 9 10 1 12 7 6 5 8
1 11 10 6 5 9 4 2 7 12 3 8
3 9 12 11 4 5 6 8 1 10 2 7
2 11 6 7 1 9 5 3 12 4 10 8
11 1 10 8 9 4 6 5 7 12 3 2
12 11 8 2 5 6 3 7 1 4 9 10
12 7 6 5 2 1 9 3 8 11 4 10
12 1 10 11 2 6 5 3 9 8 7 4
9 5 12 11 8 6 3 2 10 4 7 1
6 10 5 7 3 9 2 11 12 4 8 1
5 2 9 10 4 3 12 1 11 8 6 7
9 12 7 3 1 10 11 6 4 5 8 2
2 10 3 12 9 8 1 4 7 11 5 6
2 6 11 9 10 12 8 5 4 1 7 3
7 3 12 4 11 1 8 5 9 6 2 10
9 2 12 10 4 7 6 3 11 1 5 8
7 9 12 6 10 3 11 8 4 5 2 1
9 5 3 10 12 8 7 6 4 2 11 1
2 7 9 3 6 10 11 1 12 5 4 8
11 6 10 9 4 12 3 8 5 2 1 7
12 11 7 9 2 5 1 10 4 6 8 3
5 7 8 1 2 11 3 6 9 10 4 12
10 5 11 4 12 6 2 7 9 8 3 1
11 12 10 8 9 4 7 1 6 2 5 3
1 10 2 4 7 3 9 5 8 6 12 11
7 3 11 5 12 6 1 2 4 10 9 8
1 2 8 4 6 10 12 5 7 11 9 3
4 6 8 9 10 3 11 5 2 1 12 7
3 5 8 4 11 12 10 1 7 6 9 2
6 8 5 7 12 4 9 3 1 2 11 10
9 8 12 1 5 3 6 11 2 7 4 10
8 11 1 7 6 5 12 3 2 9 4 10
11 1 6 12 9 7 3 8 4 2 5 10
10 7 4 12 3 6 11 8 1 2 9 5

17
Fob Smith
Hob Lmith
Dob Ymith
Hob Hmith
Aob Rmith
Xob Omith
Nob Jmith
Pob Nmith
Nob Vmith
Oob Ymith
Tob Umith
Mob Jmith
Iob Xmith
Aob Imith
Dob Umith
Mob Omith
Tob Lmith
6 1 13 14 12 17 7 4 8 15 11 9 3 10 16 2 5
16 7 17 15 12 10 1 14 2 5 11 8 6 9 4 3 13
7 14 11 9 8 13 4 1 3 17 5 6 12 16 2 15 10
12 9 7 1 13 14 8 10 4 17 2 3 6 5 16 15 11
4 8 7 15 16 6 13 11 12 2 17 14 9 3 1 5 10
12 4 1 2 5 15 17 7 3 16 10 11 14 6 13 9 8
5 6 10 4 9 14 8 2 1 7 16 15 11 12 3 17 13
5 12 17 10 11 13 14 8 16 4 1 6 7 3 2 9 15
3 12 6 11 1 16 14 13 5 17 15 4 9 10 2 7 8

1
Pob Xmith
1
1
1
1
1
1
1
1
1
1
1
1
1
1
1
1
1
1
1
1
1
1
1
1
1
1
1
1
1
1
1
1
1
1
1
1
1
1
1
1
1
1
1
1
1
1
1
1
1
1
1
1
1
1

20
Pob Fmith
Kob Xmith
Gob Mmith
Xob Tmith
Iob Dmith
Iob Emith
Kob Mmith
Oob Xmith
Hob Hmith
Qob Amith
Vob Nmith
Mob Tmith
Cob Fmith
Wob Amith
Oob Zmith
Yob Cmith
Rob Rmith
Pob Emith
Zob Hmith
Eob Imith
14 12 5 7 3 18 8 9 19 13 20 1 11 2 15 10 17 6 16 4
8 7 4 1 3 20 5 2 16 13 14 19 10 15 9 18 12 6 17 11
11 2 15 13 16 3 9 20 7 17 6 4 5 12 10 14 8 18 19 1
4 10 6 13 19 3 7 15 17 11 9 16 18 14 20 12 1 8 2 5
14 6 10 3 12 11 7 4 8 17 20 5 9 16 18 13 2 1 15 19
9 6 16 11 1 13 7 18 3 19 10 20 5 14 12 2 4 8 17 15
10 9 1 2 12 5 3 4 7 6 16 19 18 11 17 15 14 13 8 20
3 4 14 15 13 5 11 1 6 19 8 20 7 18 12 17 10 2 16 9
10 18 7 4 15 11 9 17 6 20 16 14 19 5 2 12 3 8 13 1
5 17 2 7 14 3 6 1 16 11 15 9 13 19 12 10 20 4 18 8
2 14 19 11 20 13 18 16 5 10 12 4 8 17 7 1 9 3 15 6
19 13 5 1 4 20 14 16 9 3 10 17 18 15 11 2 6 12 7 8
18 16 17 10 4 5 1 9 12 14 20 15 19 11 2 13 6 3 8 7
6 1 12 10 8 18 13 4 7 19 20 11 15 3 2 14 17 9 5 16
20 5 3 15 8 17 16 12 9 13 2 10 19 6 11 18 4 7 1 14
11 2 15 4 19 12 8 9 17 20 3 7 5 6 14 10 13 1 18 16
19 9 5 3 2 16 6 7 13 15 14 20 10 1 17 12 8 4 18 11
15 14 4 7 16 18 17 6 20 12 10 3 9 13 1 19 11 5 8 2
14 8 2 7 16 5 1 13 9 4 10 15 12 20 11 6 18 17 3 19
14 8 2 15 20 12 18 5 16 17 4 7 3 9 19 10 1 6 11 13
20 14 12 17 9 3 6 1 7 18 5 2 19 13 16 10 4 8 11 15
20 14 12 5 11 1 10 16 7 4 9 15 3 18 8 19 6 2 13 17
17 10 12 11 18 15 13 3 20 16 14 5 9 19 8 1 7 4 6 2
12 5 10 4 15 14 11 8 1 19 7 16 9 3 13 17 2 18 20 6
3 18 17 8 6 13 2 4 9 1 14 5 20 16 15 7 12 10 11 19
5 9 17 16 14 1 7 18 13 8 12 3 20 15 4 11 10 19 2 6
6 2 8 12 16 20 14 17 11 10 4 3 13 19 1 5 15 9 18 7
8 19 1 9 3 11 2 13 20 18 10 5 17 6 14 16 12 7 15 4
6 1 7 8 14 17 11 15 12 4 9 18 20 19 13 5 16 10 3 2
8 12 6 3 10 19 20 5 4 15 14 7 13 2 9 11 18 17 1 16
13 12 7 4 8 20 5 15 10 11 16 6 1 2 18 3 19 17 9 14
16 9 1 6 8 18 5 17 14 15 3 10 11 2 19 7 4 13 12 20
3 20 6 2 13 17 5 9 14 12 1 8 4 18 15 19 16 11 10 7
17 15 6 9 10 16 19 20 3 5 12 18 11 2 1 14 13 4 8 7
7 12 15 19 5 17 6 2 13 14 8 11 1 20 9 3 18 10 16 4
20 18 7 10 13 5 11 12 2 6 17 19 4 3 15 16 9 14 8 1
6 20 12 16 4 18 8 1 5 10 19 2 11 15 13 3 17 9 7 14
20 18 6 13 8 4 7 10 9 16 14 12 5 17 2 19 15 1 3 11
13 16 11 9 6 2 7 4 14 19 1 15 8 10 3 17 12 20 5 18
13 4 17 8 7 20 9 10 1 11 3 16 5 6 15 12 14 2 19 18
18 2 1 3 14 17 4 12 19 16 9 11 7 10 8 13 6 20 15 5
19 7 2 12 6 1 13 16 5 9 18 8 10 17 4 14 15 3 11 20
10 4 13 15 5 7 1 3 14 16 17 11 6 8 2 20 18 12 9 19
20 15 14 18 9 17 12 3 10 19 13 4 5 11 7 16 6 8 2 1
1 16 18 9 12 19 14 11 13 20 5 15 8 3 2 7 4 10 17 6
15 17 18 13 14 16 11 10 8 5 4 20 19 6 1 12 7 3 9 2
2 12 8 6 14 13 9 1 5 11 16 17 20 3 19 4 10 15 7 18
5 17 15 3 16 7 12 2 13 4 8 20 6 11 14 10 19 18 1 9
16 13 2 6 7 4 8 19 17 20 18 11 5 14 15 10 1 9 3 12
1 20 10 15 11 18 13 9 2 19 14 17 6 8 12 5 4 16 7 3
2 18 6 16 17 3 14 4 20 8 19 1 5 10 15 9 12 13 11 7
9 11 5 1 13 6 19 18 3 15 10 7 2 12 17 8 14 16 20 4

11
Sob Xmith
Qob Emith
Xob Jmith
Vob Bmith
Bob Jmith
Tob Pmith
Sob Qmith
Mob Ymith
Cob Wmith
Job Hmith
Dob Mmith
2 1 6 10 7 4 8 5 9 3 11
6 10 9 1 7 8 4 11 5 2 3
10 4 2 3 5 8 11 9 6 7 1
8 2 9 7 5 11 1 10 6 3 4
6 8 9 7 2 1 4 3 11 10 5
1 10 6 7 9 3 8 5 2 11 4
10 9 1 6 4 2 8 5 7 11 3
2 5 6 4 11 1 10 9 3 7 8
7 10 1 5 3 6 8 11 4 9 2
10 9 7 3 2 4 1 8 5 6 11
9 6 5 3 7 1 10 4 2 11 8
6 11 3 1 4 9 2 8 5 10 7
1 8 5 6 4 3 9 10 7 2 11
9 1 7 2 8 10 5 6 11 4 3
11 1 10 4 9 8 2 3 7 5 6
6 11 9 3 2 10 1 7 8 5 4
2 10 9 11 7 4 5 8 1 3 6
10 1 8 11 2 9 6 3 5 7 4
7 9 2 8 3 6 4 5 10 1 11
1 11 6 8 10 2 3 9 5 4 7
5 4 2 9 6 11 7 3 10 1 8
4 11 3 6 10 2 5 8 9 1 7
3 9 11 8 6 10 5 1 2 4 7
1 3 5 6 11 7 2 4 8 10 9
3 1 8 10 2 5 11 7 6 4 9
7 5 4 3 6 8 2 11 10 1 9
3 7 11 6 1 10 9 2 4 8 5
2 1 10 3 7 9 6 11 4 8 5
11 7 3 2 9 10 4 5 8 1 6
6 7 8 9 11 5 10 2 4 1 3
10 6 3 1 8 9 5 2 4 11 7
3 9 8 11 5 4 6 7 1 10 2
8 9 3 2 1 11 6 4 10 5 7
10 8 11 9 7 3 4 1 6 5 2
11 2 10 8 5 4 7 1 6 3 9
4 1 6 10 8 9 2 11 5 3 7
11 8 6 9 10 1 4 2 3 5 7
7 2 5 10 6 8 9 4 11 1 3
8 6 1 4 3 5 11 2 9 10 7
9 11 5 10 8 2 1 7 3 6 4
11 3 10 5 1 4 8 2 9 6 7
9 7 11 4 1 5 2 6 3 10 8
5 9 6 1 4 3 2 11 10 8 7
4 5 1 11 9 7 8 10 3 2 6
7 5 10 8 4 6 2 11 9 1 3
7 2 1 6 3 9 8 5 11 10 4

17
Cob Vmith
Job Xmith
Eob Amith
Wob Omith
Bob Omith
Zob Umith
Rob Pmith
Mob Gmith
Tob Omith
Bob Kmith
Eob Ymith
Lob Zmith
Eob Tmith
Qob Tmith
Dob Qmith
Yob Fmith
Oob Emith
17 2 16 3 6 1 8 9 13 15 5 11 10 7 4 14 12
16 5 10 13 12 8 17 15 7 14 3 1 2 9 4 11 6
14 5 7 6 2 8 16 3 17 4 15 1 13 9 12 11 10
16 13 4 14 8 1 7 5 3 9 12 17 2 10 11 6 15
12 16 1 11 3 6 17 10 2 14 7 9 13 15 4 5 8
10 15 17 13 11 14 6 2 12 7 16 8 9 5 4 1 3
15 2 11 6 5 12 7 14 16 3 13 8 1 17 4 10 9
15 11 5 16 9 13 7 2 10 17 8 12 3 14 6 4 1
15 7 14 4 6 8 11 2 16 12 13 10 9 5 3 17 1
14 3 4 13 8 12 10 5 6 9 1 16 7 11 15 2 17
3 13 7 16 6 5 2 10 14 17 12 1 4 8 11 15 9

16
Iob Wmith
Eob Dmith
Sob Xmith
Kob Hmith
Sob Umith
Cob Jmith
Wob Umith
Cob Imith
Rob Smith
Xob Gmith
Hob Gmith
Nob Ymith
Uob Kmith
Job Mmith
Fob Smith
Oob Tmith
15 7 16 2 9 11 5 10 6 8 3 1 13 4 12 14
9 16 5 14 13 7 4 8 15 11 10 3 12 1 6 2
16 9 13 12 15 14 3 11 1 7 2 8 5 6 10 4
15 3 16 4 9 13 5 6 12 1 2 14 7 8 11 10
13 6 12 7 10 15 3 5 8 2 16 1 14 11 4 9
2 13 7 4 1 3 11 9 14 8 12 6 15 10 16 5
5 13 6 1 9 15 16 8 2 3 10 12 11 14 4 7
11 16 4 1 2 3 9 12 6 10 7 8 15 5 13 14
5 16 4 10 3 1 6 14 15 8 13 7 11 12 2 9
2 12 1 5 15 3 11 14 10 9 13 6 4 7 8 16
11 14 2 16 6 10 13 15 12 1 4 9 8 7 5 3
14 6 8 12 3 16 11 4 13 10 15 5 2 9 1 7
16 2 13 7 15 4 14 12 9 8 10 11 6 1 3 5
6 8 10 15 2 13 1 4 7 5 9 16 14 3 11 12
12 1 7 15 2 8 4 11 16 13 5 3 10 6 9 14
9 12 6 8 13 1 11 15 5 4 7 3 16 2 14 10
2 1 5 4 13 8 6 11 10 15 3 16 12 14 7 9
5 13 3 8 9 1 15 10 6 7 2 4 12 16 11 14
16 9 5 15 1 11 14 13 7 2 4 3 6 12 8 10
5 2 1 16 4 15 6 3 8 13 12 7 10 11 9 14
15 6 3 12 10 8 1 2 5 11 16 7 14 13 9 4
13 15 4 9 14 1 10 7 3 11 5 8 16 12 6 2
13 1 7 12 8 10 3 14 15 5 16 11 2 6 9 4
12 10 5 11 2 14 4 7 8 13 15 1 9 16 6 3
4 9 3 10 14 2 8 1 12 15 5 6 16 13 7 11
3 9 4 12 15 14 16 11 8 13 7 1 5 10 2 6
16 5 7 2 3 11 9 4 8 6 13 12 1 15 14 10
6 11 8 10 9 12 3 2 1 7 5 16 4 14 13 15
7 5 10 8 6 14 13 4 16 9 2 11 1 3 12 15
12 9 14 6 10 3 13 8 7 1 11 16 15 4 5 2
4 3 11 13 5 8 15 10 6 2 9 14 7 1 12 16
10 5 14 9 13 3 7 15 11 2 16 1 6 12 8 4
2 10 15 12 4 6 1 3 11 8 7 16 9 14 13 5
1 16 13 5 8 9 6 2 11 15 3 7 10 12 4 14
16 11 14 5 1 9 4 3 2 7 8 15 12 10 13 6
3 11 16 5 7 4 8 15 1 14 13 12 2 6 9 10

20
Uob Zmith
Kob Zmith
Bob Vmith
Kob Cmith
Zob Emith
Tob Tmith
Lob Emith
Aob Fmith
Tob Emith
Pob Xmith
Eob Rmith
Zob Wmith
Uob Emith
Bob Wmith
Tob Hmith
Uob Zmith
Dob Qmith
Aob Cmith
Kob Zmith
Wob Imith
10 11 3 14 7 17 8 9 2 13 5 12 19 18 15 1 4 20 6 16
15 17 14 2 19 20 3 4 11 13 18 16 5 1 12 6 10 9 8 7
18 2 19 14 12 20 10 11 6 4 13 8 7 1 5 15 9 3 17 16
5 1 18 8 15 12 20 17 14 9 3 6 16 11 19 7 13 2 10 4
13 14 18 3 5 17 7 11 4 1 2 8 12 16 6 19 15 9 20 10
5 16 9 14 10 6 12 17 1 20 7 4 2 3 15 8 13 18 19 11
10 13 18 3 5 19 12 17 4 11 1 6 7 9 2 16 8 14 20 15
20 18 13 3 6 5 8 7 2 1 16 19 14 11 4 15 9 17 10 12
3 7 2 9 14 13 10 17 8 4 1 20 18 15 11 6 5 12 16 19
11 3 12 6 20 18 17 9 2 14 5 13 16 1 10 15 4 19 8 7
19 5 4 14 17 6 1 20 18 13 10 2 9 3 16 8 15 7 11 12
2 5 14 3 8 11 9 18 10 15 17 4 1 20 13 12 7 19 16 6
5 6 18 20 2 10 13 19 11 3 8 1 14 15 7 4 9 16 12 17
6 19 2 13 4 8 10 14 20 17 5 3 15 9 16 7 18 11 12 1
20 8 17 3 14 15 7 13 16 10 18 11 9 12 1 6 5 4 19 2
15 9 14 19 4 20 17 13 8 18 7 5 12 11 2 3 1 10 16 6
11 9 19 4 10 1 8 20 18 13 16 15 2 17 7 5 14 3 12 6
8 1 16 18 12 6 2 15 10 7 17 20 4 14 9 3 11 5 13 19
1 18 11 19 4 3 13 7 20 9 14 5 6 2 10 12 15 16 8 17
9 3 7 1 10 18 11 8 5 19 13 4 14 16 12 15 6 17 2 20
15 1 14 2 11 13 4 17 5 20 10 3 16 18 19 7 9 12 6 8
10 13 6 3 17 18 7 12 19 8 4 15 5 16 2 11 1 14 9 20
7 2 3 1 5 11 10 16 13 6 17 20 15 9 19 12 4 18 14 8
6 2 9 15 5 10 14 11 16 17 3 19 12 4 20 1 8 13 18 7
6 8 19 11 18 9 2 20 16 15 5 12 17 10 13 1 7 3 14 4
15 19 20 4 1 18 7 3 17 2 16 6 8 11 10 5 9 14 12 13
2 1 17 6 15 12 20 3 7 14 16 8 5 10 11 13 4 18 9 19
2 3 12 19 16 11 13 8 9 10 18 6 4 5 15 20 7 17 14 1
9 12 16 20 10 8 4 6 17 7 14 2 3 15 5 13 1 19 11 18
8 5 18 10 7 13 4 9 11 19 14 17 3 16 20 2 6 1 15 12

5
Oob Omith
Aob Omith
Uob Cmith
Wob Omith
Aob Omith
3 1 2 4 5
2 5 1 4 3
3 4 5 2 1
5 1 2 3 4
1 3 2 4 5
4 5 2 1 3
5 4 2 3 1
1 3 5 2 4
5 4 3 2 1
3 1 2 4 5
1 2 5 3 4
3 5 2 4 1
1 3 5 2 4
2 1 3 4 5
1 4 2 3 5
2 4 1 5 3
3 2 1 4 5
5 2 1 4 3
1 3 5 2 4
2 3 5 4 1
1 2 5 4 3
1 5 3 4 2
3 5 4 1 2
1 3 2 5 4
4 1 3 5 2
2 4 1 3 5
4 1 5 3 2
5 1 3 4 2
4 1 3 2 5
1 2 3 5 4
4 5 3 2 1
4 5 2 3 1
2 1 4 5 3
2 3 1 4 5
2 3 4 5 1
5 1 2 4 3
3 1 5 2 4
5 3 1 2 4
1 2 3 5 4
5 1 3 2 4
5 2 4 3 1
4 3 5 1 2
2 3 5 1 4
1 4 5 2 3

5
Dob Lmith
Dob Smith
Wob Emith
Uob Wmith
Tob Imith
4 3 1 2 5
5 3 1 4 2
2 3 5 4 1
4 3 2 1 5
1 5 2 3 4
2 4 3 5 1
2 1 5 3 4
4 5 2 1 3
2 3 4 5 1
3 5 2 4 1
1 3 5 2 4
1 4 2 5 3
2 5 1 3 4
5 4 2 1 3
3 1 5 4 2
1 3 5 4 2
5 1 2 3 4
1 2 4 3 5
5 4 3 1 2
3 4 1 2 5
3 4 5 1 2
4 1 3 5 2
4 3 1 5 2
5 3 1 2 4
2 4 3 1 5
4 2 1 5 3
1 5 2 3 4
4 1 5 2 3
3 4 1 5 2
5 1 4 3 2
2 1 4 5 3
5 3 4 1 2
1 2 3 4 5
3 2 1 4 5
2 1 4 3 5
3 4 1 2 5
1 3 5 4 2
4 2 5 1 3
5 2 1 4 3
2 5 1 4 3
2 4 3 1 5
2 3 1 5 4
1 3 5 2 4
4 2 5 1 3
2 4 3 5 1
5 4 3 2 1
1 5 3 2 4
3 4 5 2 1
3 5 1 4 2
3 4 1 2 5
3 2 1 4 5
1 3 5 4 2
2 5 3 4 1

18
Lob Mmith
Mob Cmith
Lob Hmith
Bob Kmith
Eob Hmith
Uob Xmith
Job Vmith
Qob Jmith
Hob Bmith
Iob Ymith
Wob Bmith
Zob Bmith
Sob Cmith
Pob Mmith
Bob Imith
Rob Vmith
Vob Emith
Cob Tmith
15 1 7 8 16 2 14 3 12 18 9 17 4 5 6 11 13 10
14 2 10 4 13 6 12 11 18 3 15 9 5 16 1 17 8 7
16 12 6 5 11 1 7 15 9 2 13 8 3 10 17 18 14 4
10 13 4 15 17 3 18 12 16 11 14 1 5 7 8 2 9 6
5 6 2 1 15 4 12 10 3 18 14 17 11 7 9 16 13 8
5 7 3 15 14 11 4 9 16 18 6 12 8 13 17 10 2 1
10 4 8 6 14 1 2 7 15 3 5 13 9 11 18 17 16 12
2 18 1 7 5 14 9 3 17 11 13 8 4 10 16 6 15 12
16 6 1 8 12 3 5 11 13 15 2 9 4 14 17 18 10 7
3 11 14 7 6 12 1 2 5 10 9 8 15 18 13 4 16 17
12 6 7 18 16 2 5 3 1 9 4 13 8 11 17 15 10 14
9 8 14 12 3 18 13 5 2 17 7 11 4 1 6 15 16 10
18 12 11 14 8 2 9 13 16 3 7 5 10 15 4 1 6 17
3 7 1 15 5 2 13 4 12 16 6 10 17 18 8 14 11 9
8 9 4 18 2 17 15 16 5 14 12 7 3 11 13 10 1 6
12 10 9 16 1 18 6 2 13 17 3 5 11 7 4 14 8 15
4 1 11 9 7 2 13 3 8 14 10 5 18 12 15 17 16 6
13 11 10 17 15 3 9 16 8 1 7 12 14 6 5 2 4 18
18 13 15 2 10 8 4 14 1 3 17 11 6 9 5 7 12 16
16 3 13 17 5 4 15 14 10 9 8 18 7 12 6 1 11 2
7 3 4 17 9 16 11 18 5 10 2 6 14 13 1 12 8 15
3 13 14 15 1 2 9 11 12 5 8 16 17 4 7 6 10 18
15 6 13 3 11 17 10 1 14 12 9 18 8 7 2 5 4 16
15 16 7 2 5 3 12 13 10 6 4 9 17 14 8 18 1 11
18 6 13 11 16 3 8 9 17 1 10 2 7 12 14 15 4 5
3 6 11 14 1 7 10 9 15 8 18 2 5 16 17 13 4 12
7 1 15 11 18 3 4 13 2 10 17 12 6 8 5 16 14 9
12 2 7 11 15 16 5 3 8 13 6 4 17 14 18 10 9 1
11 1 14 18 7 10 17 8 3 16 13 15 6 9 2 12 5 4
6 13 16 12 14 15 17 2 7 8 1 3 5 4 10 18 11 9
2 17 8 18 1 13 7 4 3 11 16 15 14 12 10 6 9 5
6 7 15 18 1 3 12 4 16 11 17 8 5 14 9 10 13 2
11 7 14 9 2 4 18 16 8 5 12 1 3 10 17 15 13 6
2 11 17 10 9 18 8 16 6 3 14 5 4 1 15 7 13 12
4 6 15 14 5 9 7 13 3 1 12 11 18 2 8 16 17 10
1 2 17 12 6 9 8 13 10 5 15 14 7 11 4 16 3 18
14 17 5 1 4 11 6 2 15 3 8 12 10 7 18 9 16 13
15 2 5 3 7 8 6 9 1 18 14 4 16 10 17 11 12 13
16 9 6 2 17 18 4 12 13 10 1 8 11 5 14 7 3 15
17 10 6 8 1 2 14 16 3 13 9 18 11 12 15 7 4 5
11 15 2 4 16 8 14 10 1 7 6 9 3 13 12 17 5 18
7 5 10 14 15 9 11 4 3 13 17 6 8 12 16 1 2 18
12 5 17 8 14 6 16 1 4 11 3 18 10 7 15 13 2 9
2 3 7 5 16 13 12 6 1 15 18 11 14 9 10 4 8 17
11 14 18 15 10 7 2 17 8 6 9 4 3 5 16 13 1 12
16 9 2 11 4 5 8 14 10 12 3 15 17 13 18 7 1 6
4 18 15 9 17 8 5 14 13 3 10 2 1 6 11 7 16 12
2 1 17 15 18 14 13 12 8 3 9 16 5 7 11 4 10 6
9 17 12 8 3 14 18 11 2 6 10 13 16 5 7 1 15 4
7 18 6 8 15 12 13 9 17 4 16 5 10 11 2 1 3 14
11 3 14 12 4 9 2 5 1 7 15 10 17 13 16 18 6 8
5 2 15 3 6 14 10 7 17 11 18 13 12 4 1 9 16 8

5
Xob Kmith
Lob Fmith
Lob Gmith
Cob Vmith
Kob Wmith
1 3 4 2 5
2 1 3 5 4
1 5 3 4 2
5 1 3 2 4
3 5 4 2 1
1 5 2 3 4
5 2 4 3 1
1 5 2 4 3
4 3 2 5 1
1 2 5 4 3
5 4 2 3 1
4 3 2 5 1
4 1 2 5 3
1 4 3 2 5
1 4 2 3 5
1 2 3 5 4
2 1 3 4 5

20
Cob Amith
Dob Jmith
Yob Emith
Lob Smith
Kob Zmith
Job Pmith
Hob Tmith
Pob Qmith
Job Nmith
Uob Emith
Rob Gmith
Eob Amith
Zob Fmith
Oob Jmith
Vob Dmith
Cob Xmith
Hob Kmith
Mob Tmith
Dob Ymith
Kob Cmith
9 5 15 17 2 3 11 10 12 16 14 19 8 7 4 18 6 13 20 1
14 4 1 18 6 12 19 9 2 7 16 13 5 8 3 15 20 11 10 17
15 18 3 12 17 2 8 6 9 14 20 19 1 7 5 13 10 4 16 11
9 2 6 8 14 19 10 15 20 16 5 11 17 4 13 1 12 3 18 7
5 4 18 15 20 8 11 14 17 9 10 3 13 19 12 6 16 2 1 7
14 16 9 13 5 11 7 15 20 18 4 6 1 10 19 17 8 2 3 12
11 18 19 4 12 14 2 7 17 13 16 8 6 9 10 20 5 3 1 15
20 18 1 2 10 13 12 5 8 14 16 3 17 11 9 19 7 6 15 4
7 5 9 11 10 15 19 14 8 16 13 20 17 6 18 2 4 3 1 12
20 8 16 5 11 1 4 10 15 14 2 7 17 9 3 18 6 19 12 13
1 19 13 9 20 2 3 11 4 8 5 15 7 12 18 14 16 6 10 17
9 1 3 20 4 7 14 11 8 16 2 12 15 13 17 6 19 10 18 5
18 20 1 13 6 3 17 12 8 15 2 5 4 16 11 9 10 7 19 14
14 17 9 6 3 4 15 2 8 12 7 16 10 5 20 1 19 11 13 18
17 9 1 18 5 16 20 10 12 14 11 19 13 2 4 8 15 7 3 6
16 9 20 11 6 14 3 8 4 15 18 17 1 10 12 2 7 13 19 5
14 13 8 17 5 20 19 7 12 16 11 10 1 4 3 9 6 15 18 2
18 15 17 6 7 5 3 4 14 13 12 8 11 9 1 2 19 10 16 20
17 10 14 9 1 4 7 12 6 11 5 8 13 2 18 20 16 19 3 15

12
Xob Emith
Nob Amith
Lob Jmith
Mob Cmith
Uob Rmith
Xob Omith
Gob Wmith
Hob Pmith
Uob Ymith
Aob Dmith
Iob Imith
Kob Zmith
6 5 12 7 3 9 10 11 4 1 8 2
6 2 8 10 12 4 5 1 11 9 3 7
8 5 6 2 3 11 4 9 1 12 10 7
6 7 10 3 2 9 12 4 11 1 5 8
10 6 1 12 2 9 5 3 4 8 7 11
6 7 2 3 12 10 1 8 9 5 11 4
1 5 2 11 7 3 10 9 12 4 8 6
10 2 12 5 3 9 11 4 1 8 6 7
11 6 8 9 4 3 7 2 10 5 1 12
3 5 4 8 2 11 1 7 9 10 12 6
7 11 9 10 6 3 4 1 2 8 5 12
7 8 1 11 6 5 4 9 10 3 12 2
7 11 1 6 3 10 2 5 8 12 4 9
1 2 3 6 7 4 10 8 5 11 9 12
5 3 4 12 2 7 8 10 11 1 6 9
11 7 9 12 5 3 10 4 2 1 6 8
5 6 8 12 10 1 2 4 9 11 7 3
8 6 10 3 7 5 11 9 12 2 1 4
9 10 1 6 5 11 3 2 12 8 7 4
12 5 6 4 10 8 1 3 2 7 9 11
9 11 3 2 6 4 8 7 5 10 1 12
5 4 12 1 7 3 2 11 8 6 10 9
3 12 9 8 10 1 7 5 11 4 6 2
9 7 2 1 11 3 5 4 10 12 8 6
10 12 1 4 8 6 7 9 2 3 11 5
7 11 5 8 2 1 4 12 9 6 10 3
5 3 6 9 11 4 8 1 7 10 2 12
7 4 6 8 9 12 11 2 5 1 3 10
8 2 1 6 4 5 7 9 12 11 10 3
6 4 5 8 1 2 10 3 9 7 12 11
12 4 3 11 2 10 6 7 1 5 8 9
1 12 3 10 11 9 7 2 4 8 6 5
4 8 10 1 11 9 3 5 2 12 6 7
7 1 12 6 11 8 5 9 3 4 2 10
7 5 10 3 1 6 12 11 9 2 8 4
1 8 12 9 5 4 7 11 2 10 3 6
6 2 5 3 11 7 8 12 10 4 1 9
7 9 3 2 8 12 10 11 6 5 1 4
6 1 7 4 11 3 8 5 10 9 12 2
7 2 9 1 4 3 12 6 11 10 5 8
6 3 4 7 9 10 5 8 11 2 12 1
1 8 5 2 12 6 7 3 4 9 11 10
1 4 9 6 11 5 3 7 12 2 8 10

3
Sob Amith
Sob Vmith
Kob Fmith
3 2 1
3 2 1
1 2 3
1 3 2
2 3 1
2 1 3
1 3 2
1 2 3
1 2 3
2 3 1
1 2 3
3 1 2
2 3 1
3 2 1
2 3 1
1 2 3
3 1 2
3 1 2
2 1 3
1 3 2

3
Oob Bmith
Qob Imith
Sob Cmith
2 1 3
3 1 2
2 3 1
3 1 2
1 3 2
3 2 1
3 1 2
3 1 2
3 2 1
2 3 1
3 2 1
3 2 1
1 3 2
1 3 2
1 2 3
3 2 1
3 2 1
3 1 2
2 1 3
3 2 1
2 1 3
3 1 2
2 3 1
2 3 1
2 1 3
2 1 3
2 1 3
1 3 2
3 2 1
1 2 3
2 1 3
1 3 2
2 3 1
1 3 2
2 3 1
2 3 1
1 3 2
3 2 1
2 1 3
1 3 2
2 3 1
1 3 2
2 1 3
3 1 2
2 3 1
3 1 2
3 2 1
3 2 1
3 1 2
3 1 2
2 1 3
2 3 1
2 3 1
2 3 1

19
Kob Mmith
Oob Imith
Iob Mmith
Zob Xmith
Eob Tmith
Kob Hmith
Hob Qmith
Qob Smith
Bob Gmith
Uob Gmith
Mob Fmith
Hob Imith
Cob Zmith
Xob Tmith
Qob Tmith
Bob Jmith
Mob Wmith
Dob Emith
Fob Hmith
4 10 18 15 8 7 12 16 13 1 6 5 2 17 19 11 9 3 14
4 14 11 1 19 18 9 8 2 13 15 6 10 3 17 7 12 5 16
5 17 3 7 13 8 18 2 11 14 6 10 19 16 12 9 15 4 1
2 1 12 7 15 9 14 19 10 13 5 18 17 6 11 16 3 4 8
5 10 3 1 4 8 19 12 11 13 14 18 7 2 15 17 9 6 16
17 3 13 19 14 1 7 8 6 12 2 11 4 10 15 5 9 18 16

14
Fob Nmith
Eob Qmith
Rob Hmith
Kob Jmith
Sob Tmith
Xob Wmith
Zob Fmith
Aob Umith
Cob Umith
Qob Imith
Xob Hmith
Rob Vmith
Lob Imith
Zob Omith
8 14 4 7 1 9 11 13 2 6 10 5 12 3
9 10 3 11 14 1 5 4 12 13 7 6 2 8
3 12 7 5 2 4 6 9 1 13 14 11 10 8
6 3 10 12 5 13 2 9 4 7 8 1 14 11
10 11 5 12 8 4 1 2 13 7 14 3 9 6
4 2 3 13 1 9 12 14 6 7 5 10 8 11
5 14 4 1 6 9 3 7 12 8 11 2 10 13
6 13 9 1 4 8 7 2 11 3 5 10 14 12
3 9 13 12 10 4 6 11 1 7 2 8 5 14
10 9 1 13 4 7 2 14 12 5 11 8 3 6
2 3 1 8 10 11 9 7 14 6 5 4 12 13
4 10 14 9 7 8 12 5 6 11 1 13 2 3
4 2 9 10 8 6 12 13 1 14 7 11 3 5
2 1 13 6 12 8 4 3 5 9 7 11 10 14
9 10 3 13 4 11 14 6 5 2 12 8 7 1
9 6 5 8 4 14 10 1 12 7 11 2 3 13
9 8 3 11 12 5 14 10 13 4 2 7 1 6
1 9 13 3 2 8 10 5 7 4 14 6 12 11
1 6 4 12 13 8 10 11 9 7 3 2 14 5
3 5 4 14 6 10 13 9 1 12 8 7 2 11
10 5 11 2 14 8 4 1 9 6 13 12 7 3
7 10 3 6 11 1 13 4 12 9 5 8 2 14
3 4 13 14 5 12 8 7 10 6 1 2 11 9
6 14 12 5 2 3 1 13 4 11 10 8 7 9
12 2 11 13 7 14 5 4 8 6 10 9 3 1
5 4 8 12 2 13 9 11 7 3 10 6 14 1
9 12 3 1 6 5 4 2 11 13 7 10 8 14
9 3 5 1 7 12 2 6 13 8 14 11 4 10
8 13 4 5 9 14 11 12 6 3 2 10 1 7
2 11 5 14 10 8 3 7 4 6 1 13 12 9
3 11 10 8 13 5 1 9 6 7 2 12 14 4
8 1 4 9 2 11 13 3 7 6 5 14 12 10
3 5 8 11 1 10 7 6 13 4 2 12 9 14
10 12 2 1 11 3 7 9 13 4 5 8 14 6
10 1 4 12 5 9 13 2 3 7 8 6 11 14
8 13 14 12 9 5 3 10 1 6 4 7 2 11
5 8 4 2 10 9 11 7 3 12 13 6 1 14
1 3 7 12 11 14 5 10 13 4 8 9 6 2
3 8 11 7 10 12 1 4 9 14 5 2 6 13
4 12 6 10 9 7 11 5 3 1 13 14 2 8
12 7 3 1 6 2 11 10 9 5 13 8 4 14
3 14 10 1 6 13 2 11 5 4 12 9 7 8
7 3 13 9 1 5 4 8 12 2 14 11 6 10
12 5 10 8 3 9 1 11 14 2 4 7 6 13
8 1 4 5 9 14 11 3 13 12 10 6 2 7
7 1 10 13 12 3 14 4 9 6 11 2 8 5
5 6 8 13 11 14 12 1 3 10 7 9 2 4
1 12 14 3 6 2 10 4 11 13 7 5 9 8
3 5 14 2 12 8 10 9 6 1 4 11 13 7
11 10 5 12 3 6 7 9 2 4 13 14 1 8

11
Nob Hmith
Zob Zmith
Dob Gmith
Oob Cmith
Hob Hmith
Fob Emith
Yob Nmith
Mob Qmith
Rob Kmith
Sob Jmith
Uob Vmith
9 6 11 7 1 10 4 3 8 5 2
5 4 7 1 3 6 8 10 11 2 9
10 7 9 2 1 5 8 3 11 4 6
4 3 10 6 5 2 7 9 11 8 1
4 10 2 7 8 9 6 11 5 3 1
2 9 10 7 8 3 11 1 5 6 4
3 4 11 7 6 2 1 8 10 9 5
4 10 8 3 7 2 9 5 6 1 11
10 4 8 9 2 3 6 1 5 7 11
1 11 3 4 2 6 5 8 7 9 10
4 10 7 11 5 2 8 3 1 6 9
2 7 5 6 11 10 9 4 8 1 3
1 11 6 8 9 7 3 2 5 4 10
3 4 7 10 2 5 9 8 11 1 6
2 3 6 5 10 11 1 8 7 9 4
6 11 5 4 1 2 8 7 10 3 9
1 7 5 3 11 2 8 6 9 4 10
2 11 10 1 7 3 8 4 6 9 5
9 1 8 4 3 5 11 2 6 10 7
9 8 6 3 4 11 2 5 10 7 1
3 1 4 2 5 10 8 6 9 11 7
8 4 11 1 3 7 6 5 2 9 10
11 3 9 4 10 1 7 5 6 2 8
7 4 11 3 1 8 2 5 6 9 10
5 3 7 9 6 4 11 8 10 1 2
9 3 10 11 7 5 8 6 2 1 4
8 11 1 2 3 9 5 7 10 4 6
9 11 7 2 3 1 6 5 10 8 4
11 10 9 4 8 5 1 2 6 7 3
5 7 3 4 9 10 8 2 11 1 6
8 6 4 5 9 10 7 2 3 11 1
4 10 2 6 9 7 11 1 3 5 8
9 4 2 3 5 8 7 11 1 6 10
7 1 4 11 10 2 6 5 9 8 3
9 2 4 1 7 6 8 5 11 10 3
6 11 10 9 8 1 5 7 4 3 2
7 3 9 2 5 11 6 4 1 10 8
2 6 9 8 11 3 7 1 10 4 5
4 11 7 5 6 10 9 1 3 2 8
3 4 1 2 7 6 9 11 5 10 8
11 2 1 7 4 3 5 8 9 6 10
8 11 9 7 6 10 3 1 2 5 4
3 7 2 5 1 10 4 11 8 6 9
9 8 5 10 4 6 11 1 7 3 2
6 11 9 4 10 3 7 2 1 8 5
10 7 1 6 5 11 4 3 8 9 2
6 5 11 3 9 10 7 2 1 8 4
1 5 9 7 8 6 4 3 2 10 11
2 10 5 9 7 1 3 4 6 11 8
11 7 2 6 3 10 1 4 5 9 8
9 2 10 5 11 3 7 8 1 4 6

14
Iob Wmith
Qob Ymith
Sob Smith
Uob Imith
Xob Qmith
Uob Zmith
Sob Wmith
Xob Tmith
Mob Bmith
Rob Vmith
Bob Fmith
Uob Amith
Uob Rmith
Gob Cmith
6 10 4 5 12 3 8 1 2 14 7 9 13 11
4 10 6 13 3 8 7 14 1 12 11 2 5 9
4 14 1 11 10 2 7 12 13 9 8 5 6 3
6 13 12 8 9 1 7 3 4 11 10 5 14 2
13 4 3 1 14 5 2 11 9 8 6 12 10 7
6 8 11 4 3 7 9 10 12 14 5 13 1 2
5 13 7 11 1 10 9 6 8 14 4 2 12 3
7 8 10 1 6 12 3 5 9 14 2 4 13 11
11 7 4 12 3 14 1 8 10 2 9 6 5 13
2 10 13 1 8 3 6 7 14 9 12 4 11 5
10 2 5 4 1 8 9 7 12 11 6 14 13 3
14 3 7 8 4 2 1 5 13 6 9 12 10 11
5 8 9 10 11 13 3 2 1 6 4 14 12 7
5 9 8 7 4 2 3 13 6 11 12 10 14 1
8 6 11 5 2 13 7 3 14 4 12 9 1 10
12 11 9 7 3 2 14 13 4 10 1 6 5 8
7 8 1 14 10 4 13 6 12 9 2 5 3 11
8 5 12 7 3 1 9 11 2 14 10 13 4 6
5 12 1 11 14 3 2 10 8 4 6 13 9 7
11 8 4 5 6 13 1 3 12 14 7 2 10 9
6 12 11 5 4 1 3 2 10 13 9 14 8 7
13 10 11 5 3 6 2 9 8 14 7 4 1 12
14 12 5 8 2 4 10 11 6 3 9 1 13 7
10 8 5 4 12 11 6 7 14 3 9 13 2 1
13 12 14 10 8 9 4 5 7 11 1 2 3 6
7 6 14 2 9 1 8 3 13 12 4 11 5 10
3 10 2 1 9 14 12 6 4 7 13 11 5 8
12 13 8 14 9 4 1 11 3 2 5 6 10 7
5 9 14 10 11 3 6 7 13 8 4 12 2 1
5 13 4 14 7 3 2 8 9 11 1 12 6 10
4 3 7 1 12 6 9 5 11 14 8 13 2 10
11 8 3 4 9 2 5 10 6 14 12 13 1 7
7 5 4 13 3 1 12 9 10 2 11 14 8 6
7 2 5 8 14 11 1 12 13 10 3 4 9 6
8 6 9 11 2 7 3 12 10 1 5 14 13 4
3 11 14 5 13 10 6 1 8 2 9 7 12 4
4 2 5 11 10 1 14 12 7 6 13 3 8 9
14 6 1 5 13 12 2 11 3 7 9 4 10 8

1
Yob Imith
1
1
1
1
1
1
1
1
1
1
1
1
1
1
1
1
1
1
1
1
1
1
1
1
1
1
1
1
1
1
1
1
1
1
1
1
1
1
1

18
Hob Emith
Job Lmith
Sob Dmith
Fob Smith
Gob Bmith
Kob Kmith
Nob Emith
Tob Tmith
Mob Bmith
Job Emith
Cob Bmith
Fob Pmith
Oob Fmith
Rob Smith
Zob Imith
Nob Ymith
Hob Kmith
Yob Hmith
5 3 7 4 2 14 16 17 12 6 11 15 10 8 18 1 9 13
13 11 1 17 9 8 7 5 15 3 14 10 4 12 2 18 6 16
7 3 13 2 18 14 4 9 10 5 17 6 8 12 11 1 16 15
16 17 7 2 8 6 15 1 14 9 13 3 10 11 4 18 12 5
12 13 14 4 17 10 18 16 8 2 6 5 11 7 1 15 3 9
3 17 13 9 16 2 10 4 1 8 6 5 12 11 18 7 14 15
9 17 7 5 6 14 10 16 3 15 1 4 2 11 8 12 18 13
15 16 5 3 4 8 11 6 12 13 1 17 7 10 14 9 18 2
1 17 2 7 4 12 15 14 5 13 3 9 10 8 16 18 6 11
18 2 3 5 8 12 4 15 16 13 6 17 1 9 10 11 7 14
14 16 17 3 6 13 11 4 7 2 8 1 15 9 18 12 10 5
5 7 10 11 8 3 9 4 1 14 17 6 2 13 12 16 18 15
14 7 15 3 2 10 9 4 16 11 17 6 8 13 12 18 1 5
5 15 3 17 4 11 1 10 16 14 9 7 8 6 12 2 13 18
7 10 3 18 17 6 15 2 4 9 13 5 12 14 8 16 1 11
9 5 3 7 15 4 1 17 10 6 8 11 12 2 16 18 13 14
4 9 12 7 11 17 2 5 8 16 3 14 15 13 10 18 1 6
18 9 16 14 1 2 15 6 12 10 7 5 13 4 3 11 17 8
15 7 3 18 12 1 9 4 2 10 14 11 17 5 8 16 6 13
1 4 8 10 17 14 2 13 6 15 12 11 7 5 9 18 3 16
6 5 3 12 10 2 8 13 18 7 11 16 1 4 17 9 14 15
14 18 7 8 3 4 16 13 1 9 17 2 5 12 10 15 6 11
1 10 17 5 4 12 9 8 13 18 7 11 14 16 15 6 3 2
12 10 15 8 6 17 9 11 2 5 7 3 13 16 18 1 4 14
11 7 1 12 9 17 3 13 16 5 2 8 6 14 15 18 4 10
9 18 12 5 6 7 1 13 17 14 4 3 16 10 8 15 11 2
3 8 15 5 7 13 6 2 17 4 11 10 12 1 18 9 16 14
13 14 6 15 18 17 1 4 10 2 7 3 8 12 11 9 16 5
4 17 7 18 5 15 11 12 1 8 6 13 2 16 10 3 14 9
11 8 7 6 16 12 9 10 5 3 13 18 14 15 4 1 2 17
4 6 7 5 16 15 17 2 11 12 10 1 3 18 13 8 9 14

13
Sob Umith
Eob Umith
Mob Emith
Wob Rmith
Tob Dmith
Yob Hmith
Lob Ymith
Eob Gmith
Dob Umith
Gob Hmith
Yob Smith
Yob Hmith
Aob Wmith
12 4 7 6 11 13 3 8 9 1 2 10 5
12 13 11 3 10 4 2 7 1 9 6 8 5
8 7 9 5 10 12 4 1 2 13 6 11 3
2 10 7 4 3 12 13 11 8 6 5 9 1
8 5 13 3 10 2 9 7 11 12 4 6 1
4 11 6 13 3 10 7 5 8 12 1 9 2
7 10 12 8 11 3 2 5 4 9 6 13 1
4 3 10 2 5 1 6 13 7 11 12 9 8
2 10 5 3 12 6 11 8 4 1 9 13 7
6 4 2 10 11 3 1 9 13 7 8 12 5
3 7 12 1 9 8 10 11 6 2 4 13 5
12 2 7 8 10 11 5 9 6 13 1 4 3
10 3 11 13 5 9 8 7 2 4 12 6 1
2 13 10 1 3 7 5 8 9 11 6 12 4
3 7 5 1 2 6 8 12 9 11 13 10 4
6 10 4 2 13 12 1 3 5 7 9 8 11
10 6 2 3 8 12 1 11 5 7 9 13 4
4 7 6 13 12 1 2 9 11 8 3 5 10
4 1 13 3 10 12 11 9 5 6 8 2 7
6 2 4 7 3 9 12 1 5 8 13 11 10
3 11 2 12 10 7 4 5 13 1 8 6 9
13 11 3 1 7 5 6 8 4 9 10 2 12
1 4 5 6 11 3 13 7 8 2 10 12 9
3 10 7 11 12 6 1 8 9 4 5 13 2
3 7 5 6 4 2 13 8 9 1 11 10 12
6 1 8 5 13 11 4 3 2 9 7 10 12
1 9 7 3 5 6 11 2 10 13 12 8 4
6 8 10 13 11 7 12 4 2 1 3 5 9
2 8 13 9 11 6 7 5 4 10 1 12 3
2 11 7 6 5 9 10 4 3 8 13 12 1
4 2 13 3 6 12 9 10 5 11 7 1 8
2 1 12 5 10 8 9 11 6 7 4 3 13
13 1 12 8 5 11 6 3 10 9 4 7 2
13 2 5 3 7 4 9 10 12 8 11 1 6
3 1 13 5 7 2 11 10 4 12 9 8 6
4 12 1 5 8 2 9 7 10 3 11 6 13
1 12 5 9 3 10 4 6 13 7 2 11 8
11 10 4 5 9 1 12 3 6 2 13 7 8
2 7 11 13 9 1 5 8 6 12 4 3 10
13 6 8 12 3 1 7 10 9 11 4 5 2
10 13 7 11 6 5 8 12 9 3 4 1 2

12
Fob Mmith
Nob Jmith
Oob Wmith
Xob Kmith
Xob Hmith
Fob Bmith
Wob Mmith
Qob Omith
Nob Dmith
Zob Hmith
Hob Hmith
Job Amith
6 8 5 3 1 11 2 10 9 12 4 7
1 7 9 12 2 6 8 5 3 11 10 4
1 10 7 6 3 8 2 4 11 9 12 5
1 7 3 12 6 4 2 9 8 5 11 10
1 11 7 12 4 9 3 10 2 6 5 8
10 8 3 2 5 12 7 9 1 11 6 4
2 11 6 5 12 3 8 9 1 7 4 10
7 1 3 9 8 11 10 5 2 12 6 4
4 11 3 9 10 2 12 8 7 1 5 6
11 2 6 5 3 10 12 1 7 8 4 9
9 5 8 10 3 6 1 7 2 4 12 11
7 4 10 2 8 1 11 9 5 3 6 12
6 10 12 3 8 11 9 4 1 7 2 5
2 11 5 12 3 1 9 8 10 4 7 6
2 6 11 1 10 7 4 12 8 5 9 3
4 8 2 6 9 3 12 10 5 1 7 11
6 7 1 3 2 8 10 4 12 9 5 11
8 12 10 4 1 9 11 5 3 6 2 7
7 6 8 10 5 4 1 9 2 3 11 12
3 4 9 2 1 8 12 11 7 5 10 6
10 4 2 8 6 1 9 3 7 11 5 12
3 7 8 4 11 6 1 2 9 10 5 12
12 8 11 10 9 3 2 1 4 6 7 5
1 5 6 2 12 8 3 9 7 4 10 11
2 12 3 7 8 6 4 5 11 10 1 9
10 9 6 2 5 11 4 8 1 12 3 7
5 4 11 8 12 2 1 7 6 9 3 10
12 10 4 6 8 1 2 3 7 5 11 9
9 10 4 5 11 8 12 6 7 2 1 3
11 9 10 1 8 5 7 12 4 3 2 6
8 4 7 5 10 9 1 11 12 3 6 2
7 6 10 5 2 11 1 4 3 12 9 8
12 11 9 8 5 6 1 7 4 10 2 3
8 12 9 6 7 4 1 11 2 10 5 3
3 5 11 10 12 7 9 6 8 1 2 4
9 12 4 7 6 11 8 1 2 3 5 10
5 12 9 10 8 7 1 6 2 11 4 3
6 8 3 12 4 1 10 11 5 7 2 9
11 8 6 12 1 5 4 2 7 9 10 3
10 4 6 2 1 7 8 11 3 12 5 9

13
Yob Bmith
Qob Dmith
Aob Vmith
Tob Mmith
Iob Jmith
Mob Lmith
Cob Hmith
Mob Tmith
Cob Kmith
Qob Rmith
Mob Nmith
Rob Fmith
Iob Cmith
12 6 8 3 2 7 10 5 11 1 13 4 9
7 13 11 5 4 8 10 12 1 9 6 3 2
3 1 6 10 9 12 13 8 7 4 11 2 5
8 2 1 12 13 6 9 7 11 5 4 3 10
11 1 8 4 5 10 2 13 7 6 9 12 3
4 6 3 2 13 9 5 11 10 12 1 8 7
5 11 10 6 2 4 12 3 9 1 8 7 13
8 6 10 5 1 9 12 2 4 7 13 11 3
11 3 4 13 1 6 12 9 5 7 10 2 8
7 5 2 10 11 9 12 8 13 1 6 4 3
7 4 10 12 6 11 9 3 2 5 1 13 8
11 9 10 5 13 2 12 8 3 1 7 4 6
7 6 2 3 12 5 11 13 4 10 1 9 8
12 9 3 11 2 4 7 1 5 6 13 10 8
9 2 11 4 10 3 1 12 5 8 6 13 7
11 12 2 7 13 3 6 1 5 9 10 4 8
5 12 6 1 9 13 10 8 4 7 3 2 11
12 11 6 13 2 8 7 5 10 3 4 1 9
12 3 13 1 10 2 6 7 11 5 9 4 8
12 8 10 11 6 1 4 7 3 13 2 5 9
8 5 1 12 13 6 9 10 7 4 2 3 11
6 5 8 13 3 11 7 1 4 2 10 12 9

19
Wob Ymith
Eob Kmith
Wob Omith
Qob Wmith
Iob Tmith
Rob Kmith
Gob Tmith
Uob Amith
Rob Imith
Vob Cmith
Fob Pmith
Yob Cmith
Cob Rmith
Fob Wmith
Bob Smith
Lob Imith
Tob Cmith
Xob Nmith
Oob Tmith
2 16 12 5 17 11 6 13 3 9 8 1 7 18 4 14 10 19 15
15 9 1 5 10 4 17 11 7 18 12 2 6 3 16 13 8 14 19
16 19 3 4 10 17 9 8 14 1 5 7 12 13 2 6 11 18 15
13 5 15 14 6 19 11 1 8 10 3 17 16 7 18 2 9 4 12
4 8 3 16 13 2 10 14 6 12 11 1 7 19 18 17 5 9 15
3 8 14 5 10 1 19 18 13 6 9 4 17 7 11 15 2 12 16
9 11 17 16 12 18 14 2 5 10 8 19 3 7 1 13 4 6 15
19 8 1 15 13 6 3 16 11 17 5 2 7 10 4 12 14 18 9
15 6 3 16 9 17 2 4 18 1 13 5 14 19 10 12 8 7 11
13 12 5 14 9 6 3 17 8 7 15 2 11 18 19 10 16 1 4
19 1 4 13 10 11 12 9 8 3 7 6 2 15 18 16 14 5 17
2 8 3 15 13 12 19 16 5 18 6 9 1 14 4 10 11 7 17
10 16 9 11 14 8 6 3 4 1 13 18 2 17 7 15 12 5 19
16 17 18 8 2 5 19 14 3 11 4 13 7 6 9 10 15 1 12
1 9 18 6 13 7 11 14 4 10 5 17 2 8 3 15 19 12 16
10 15 2 11 13 5 1 14 18 12 4 19 17 6 16 9 3 7 8
1 13 11 7 18 12 9 14 15 8 17 4 16 10 3 19 6 5 2
10 16 2 13 3 4 17 19 15 9 12 14 7 1 8 18 11 5 6
12 5 2 6 8 11 15 16 3 18 9 13 4 7 19 14 17 10 1
3 14 4 9 10 13 7 15 17 8 12 5 16 6 2 19 11 1 18
5 16 13 17 4 14 8 12 15 3 2 19 18 6 10 7 11 9 1
11 10 16 14 6 5 19 4 9 18 8 3 7 12 1 17 2 13 15
19 6 5 11 1 2 7 17 10 12 13 8 14 3 4 16 18 9 15
12 9 16 2 11 1 6 13 8 15 10 3 7 4 19 5 17 18 14
5 12 13 8 18 17 10 14 6 1 7 19 9 3 4 2 16 11 15
6 16 18 3 4 14 1 7 5 11 13 19 12 9 17 2 15 8 10
7 10 8 2 1 3 14 12 18 5 17 4 15 16 9 11 6 13 19
4 8 13 12 1 2 18 9 19 10 17 3 11 6 14 5 7 16 15
1 9 13 18 3 11 10 17 15 19 16 6 5 2 7 4 8 14 12
13 6 14 4 2 9 7 1 19 16 18 17 11 3 8 10 12 15 5
14 6 18 7 8 9 1 2 19 11 5 3 4 17 16 10 13 15 12
15 14 12 18 7 1 13 10 19 17 8 2 6 11 16 3 9 4 5
15 9 3 13 14 10 12 7 1 16 8 5 6 17 19 4 18 11 2
16 19 8 18 15 17 14 2 7 4 9 1 11 13 6 5 3 12 10
10 5 3 14 19 15 7 13 18 4 2 16 17 1 9 8 12 6 11
9 19 17 8 7 16 12 11 15 18 6 4 13 14 3 5 10 2 1
7 4 2 18 15 10 6 13 1 5 14 17 3 11 19 8 9 12 16
1 15 13 19 16 8 6 4 7 11 3 10 9 5 18 14 12 17 2
8 19 6 14 3 5 10 7 13 18 12 1 15 4 17 11 2 16 9
3 11 14 8 15 19 4 2 13 5 18 17 6 1 9 10 12 16 7
7 13 2 14 18 6 11 9 3 10 5 16 1 4 15 12 17 8 19
1 7 15 19 2 11 8 13 9 5 17 14 18 4 6 3 10 12 16
2 7 8 5 10 16 18 1 3 6 13 11 9 15 14 4 19 17 12
2 13 4 15 11 10 12 6 7 18 8 9 5 14 17 1 19 16 3
9 5 18 16 6 10 11 12 15 7 13 19 4 1 2 3 8 17 14
1 10 18 2 19 4 6 7 9 17 5 3 15 12 11 13 8 16 14
4 12 6 2 9 17 5 15 13 19 16 3 10 14 1 11 7 8 18
16 6 5 3 7 15 8 1 17 12 14 18 11 10 19 9 4 13 2

10
Tob Emith
Tob Lmith
Lob Dmith
Zob Mmith
Hob Rmith
Nob Wmith
Dob Wmith
Zob Qmith
Cob Lmith
Gob Rmith
6 2 5 8 3 4 10 9 7 1
1 4 5 3 6 8 9 10 2 7
8 7 2 6 5 4 1 10 3 9
5 10 6 7 3 4 1 8 2 9
2 3 7 8 6 5 10 1 4 9
2 7 9 10 3 4 8 5 6 1
8 5 6 1 10 2 7 3 4 9
6 10 7 9 5 8 4 3 1 2
5 3 7 2 1 6 8 10 9 4
6 1 10 9 4 8 5 2 7 3
4 5 8 9 3 10 1 6 7 2
10 3 5 4 9 2 1 7 6 8
4 7 8 10 2 1 5 9 3 6
8 1 9 2 7 3 10 6 4 5
9 4 3 7 2 8 6 1 5 10
3 2 6 4 5 7 9 10 1 8
7 9 10 5 3 8 2 6 4 1
8 6 2 7 5 3 4 9 10 1
2 7 10 3 4 8 6 9 1 5
4 3 1 2 9 10 5 8 7 6
8 7 10 4 5 2 1 9 3 6
1 6 10 3 7 9 8 2 5 4
3 2 7 10 9 6 5 4 1 8
9 5 7 1 10 4 8 6 2 3
10 8 9 7 6 4 2 5 1 3
6 1 7 10 4 9 5 8 2 3
4 9 7 8 5 3 2 10 1 6
7 3 2 9 8 1 10 6 5 4
2 7 4 1 5 3 10 9 6 8
8 2 3 10 7 5 1 6 9 4
6 8 9 7 2 5 3 4 1 10
9 10 7 1 2 5 3 4 8 6
10 8 3 5 6 9 2 1 7 4
6 10 2 5 1 7 3 4 9 8
8 10 9 5 1 3 4 2 6 7
1 2 7 8 3 10 6 5 9 4
2 8 10 7 1 4 5 6 3 9
6 4 2 9 5 1 8 7 10 3
8 4 3 9 6 1 2 7 5 10
4 3 7 2 10 5 6 8 9 1
5 9 3 6 7 8 10 1 2 4
5 8 1 9 3 6 2 4 10 7
1 4 5 7 2 6 3 10 9 8

17
Fob Vmith
Dob Rmith
Sob Imith
Wob Lmith
Oob Rmith
Zob Bmith
Zob Pmith
Aob Umith
Oob Bmith
Kob Tmith
Iob Gmith
Mob Qmith
Fob Bmith
Zob Pmith
Oob Pmith
Vob Pmith
Xob Xmith
17 8 12 3 10 9 4 15 1 7 14 16 2 5 11 13 6
13 6 5 16 1 17 9 2 3 10 15 12 4 14 8 7 11
16 9 2 12 5 7 17 6 4 10 8 14 3 13 1 11 15
16 10 15 13 3 7 11 17 8 5 4 12 2 6 1 9 14
3 12 5 10 6 17 14 15 4 2 13 16 11 7 8 9 1
14 13 17 2 6 11 12 10 4 3 1 9 16 7 5 15 8
2 14 11 4 8 13 16 5 6 17 7 12 3 1 10 15 9
15 7 6 17 13 4 14 16 12 2 10 9 3 1 5 8 11
4 11 5 9 1 3 13 2 12 14 10 16 7 8 17 6 15
4 16 17 10 3 14 8 13 9 12 6 1 11 5 2 7 15
3 10 8 2 14 4 11 12 16 17 5 1 7 9 13 15 6
16 11 1 6 2 15 5 10 8 3 14 13 12 7 17 4 9
14 17 12 10 8 7 3 15 2 16 11 6 13 9 5 1 4
15 7 14 13 5 8 2 10 1 12 4 9 3 11 6 16 17
12 7 14 10 16 5 13 11 3 15 2 6 1 8 4 17 9
3 11 17 9 8 14 10 4 2 1 7 15 12 6 5 16 13
16 17 4 10 13 5 12 7 11 8 15 14 2 9 6 1 3
11 6 8 10 1 5 12 9 4 15 14 13 16 3 17 7 2
9 17 8 2 6 13 1 11 15 10 4 3 5 7 14 12 16
12 8 17 9 15 7 11 2 3 6 13 5 4 10 16 1 14
17 6 5 14 2 4 7 9 12 1 15 16 3 8 10 11 13
1 8 11 17 15 3 4 7 5 12 14 16 10 6 13 2 9
1 10 12 4 15 8 9 7 11 17 5 3 14 16 13 2 6
1 7 15 14 2 17 12 3 5 9 8 4 16 11 13 6 10
4 1 14 2 9 3 15 17 8 16 5 13 12 11 7 10 6
6 8 12 17 1 3 9 4 5 7 15 14 13 16 11 2 10
16 10 6 7 8 15 3 1 5 11 12 2 17 4 14 9 13
12 2 9 4 13 15 5 1 16 11 14 17 6 10 7 8 3
7 16 11 6 2 14 15 13 10 4 12 17 3 1 8 5 9
1 5 7 4 11 14 9 2 15 12 16 6 17 10 3 8 13
3 10 17 2 1 9 14 11 16 4 12 15 6 13 5 7 8
16 2 3 8 14 12 13 5 11 1 10 17 9 4 6 7 15
8 10 7 3 12 11 9 16 14 6 13 15 5 1 4 2 17
5 6 14 16 11 3 9 15 1 4 7 17 13 10 8 12 2
7 6 2 9 8 1 3 14 12 13 11 4 17 10 16 15 5
1 8 14 4 3 16 12 2 6 15 9 7 13 5 11 17 10
7 2 4 3 9 15 8 16 6 1 5 14 17 10 12 11 13
6 8 1 16 7 9 4 14 10 3 11 2 12 15 17 13 5
3 13 8 7 1 12 10 9 4 5 17 11 14 16 15 2 6
2 17 12 11 15 9 3 10 8 16 5 4 1 7 14 6 13
17 1 4 11 5 6 16 12 8 15 7 3 13 14 10 9 2
16 12 4 13 15 14 10 1 6 2 9 11 5 3 8 7 17
5 6 7 8 16 1 10 17 15 13 14 9 2 3 12 11 4
8 15 12 6 14 4 9 3 1 17 2 11 7 16 13 5 10
9 15 2 3 17 11 1 6 14 16 7 10 4 8 13 12 5
5 15 17 8 2 6 11 3 16 7 1 9 14 4 10 12 13
17 4 1 12 15 2 16 3 10 13 6 5 7 14 11 9 8

17
Yob Wmith
Job Rmith
Sob Tmith
Uob Emith
Hob Wmith
Bob Fmith
Wob Bmith
Wob Bmith
Xob Nmith
Oob Tmith
Tob Kmith
Dob Mmith
Iob Gmith
Tob Imith
Pob Hmith
Mob Jmith
Rob Amith
11 5 3 14 1 6 12 13 16 9 4 15 7 10 2 17 8
15 14 17 4 8 13 6 2 11 9 1 3 5 16 12 7 10
16 3 11 12 10 14 7 8 9 15 13 2 17 5 4 1 6
7 11 2 10 3 15 5 6 14 16 13 4 1 12 9 17 8
16 9 12 6 3 8 2 4 7 11 13 5 15 1 14 10 17
15 7 16 4 1 2 5 10 13 3 14 12 11 8 9 6 17
9 13 16 14 6 5 2 12 17 11 4 15 1 7 8 10 3
15 14 16 5 17 6 9 4 3 12 11 7 13 10 8 2 1
15 16 6 12 11 8 17 14 2 7 5 9 3 13 1 10 4
14 11 1 7 4 12 15 16 17 2 10 3 13 5 6 9 8
13 10 12 5 14 8 16 2 17 4 15 1 11 7 3 9 6
17 8 14 11 6 16 7 4 15 12 10 5 2 13 3 1 9
17 6 11 8 9 1 16 15 2 3 13 10 14 4 7 12 5
14 15 2 7 8 12 16 3 11 10 9 13 4 6 17 5 1
3 15 17 5 14 7 11 12 1 9 10 8 2 6 16 13 4
17 2 11 10 9 16 4 13 12 7 5 15 8 6 1 3 14
14 1 12 8 13 6 11 7 5 17 10 2 9 3 16 4 15
16 8 12 10 7 11 9 1 5 17 3 14 6 15 4 13 2
12 17 9 13 1 6 16 5 8 14 2 10 3 11 4 7 15
9 3 14 4 10 11 8 1 7 5 13 16 6 17 2 12 15
12 5 7 11 1 3 16 4 10 6 17 2 8 14 13 15 9
7 15 11 17 14 6 8 2 12 9 4 13 1 10 5 3 16
12 11 4 2 16 5 13 9 8 15 10 7 17 6 1 3 14
1 9 6 15 16 5 12 10 3 7 17 4 11 14 8 2 13
17 10 1 3 9 7 15 14 16 6 8 11 13 5 12 4 2
10 4 13 5 1 8 2 7 14 9 16 15 6 12 11 3 17
13 7 10 3 2 8 17 5 6 12 16 1 9 11 4 15 14
10 13 9 15 11 7 12 5 16 4 2 1 3 14 8 6 17
2 16 14 10 3 6 13 1 4 15 9 5 8 7 17 12 11
9 17 7 3 16 11 4 10 13 12 6 2 8 14 1 15 5
4 14 16 7 12 6 1 5 2 15 3 11 9 13 8 10 17
2 4 8 14 9 6 13 1 7 16 10 5 11 15 17 3 12
14 13 9 4 10 5 15 6 7 3 17 8 11 12 2 16 1
13 14 5 7 9 1 3 10 6 16 12 2 11 8 17 4 15
3 11 7 4 10 12 6 16 14 1 13 2 5 15 9 17 8
10 15 3 11 8 5 14 17 6 12 2 13 1 7 9 4 16
2 15 14 17 8 13 9 7 10 4 5 6 3 16 1 12 11
8 15 4 12 5 10 2 1 16 9 7 3 14 17 11 6 13
11 1 5 4 16 14 8 15 6 7 12 2 13 10 9 3 17

17
Tob Xmith
Cob Tmith
Cob Bmith
Iob Kmith
Eob Rmith
Oob Tmith
Pob Mmith
Zob Pmith
Oob Cmith
Cob Mmith
Dob Xmith
Aob Vmith
Uob Jmith
Iob Fmith
Zob Vmith
Pob Qmith
Yob Fmith
17 13 2 10 3 8 9 14 11 12 5 4 16 15 1 7 6
5 2 8 7 12 1 14 11 3 10 17 16 4 15 13 9 6
14 5 7 11 1 15 9 12 17 6 8 16 2 10 3 13 4
6 9 4 14 17 1 2 8 5 13 11 12 15 16 7 3 10
6 10 8 1 7 11 2 15 17 14 16 4 3 9 13 12 5
10 1 9 2 3 17 8 15 12 13 11 14 16 6 7 4 5
10 7 2 11 17 9 12 1 13 4 8 16 15 3 14 5 6
14 12 5 4 1 8 7 13 3 11 6 9 17 16 2 10 15
14 6 17 15 4 9 5 16 10 3 13 1 11 2 12 7 8
7 8 13 11 16 9 14 12 15 17 6 5 10 3 4 2 1
9 15 3 6 17 12 11 2 10 14 13 8 16 5 7 1 4
15 1 6 5 9 8 17 14 3 12 16 10 11 7 4 2 13
8 15 10 17 16 1 9 11 5 13 12 6 7 4 3 2 14
2 5 17 11 14 7 8 6 15 3 12 13 9 1 4 16 10
17 1 9 15 7 16 12 8 13 11 3 5 10 2 6 14 4
10 17 11 16 8 5 9 12 6 1 7 4 2 15 3 14 13
15 3 8 17 14 6 12 11 13 9 16 10 2 4 5 7 1
13 17 15 12 14 16 1 10 5 2 9 4 8 11 6 3 7
1 15 9 10 11 7 14 8 6 16 12 5 4 17 3 13 2
4 7 14 8 12 17 2 13 10 3 6 9 16 1 5 15 11
11 17 4 1 9 14 3 6 13 7 15 2 10 5 12 8 16
8 3 14 7 10 2 11 12 1 13 4 6 5 9 17 15 16
15 13 11 14 17 1 3 8 16 7 5 6 12 10 2 4 9

12
Sob Emith
Sob Wmith
Cob Omith
Mob Xmith
Bob Qmith
Qob Fmith
Eob Qmith
Tob Dmith
Pob Zmith
Tob Zmith
Nob Xmith
Uob Emith
3 11 4 9 10 1 12 6 2 5 8 7
12 7 10 6 5 2 8 3 9 4 11 1
9 12 11 5 7 3 8 6 10 4 1 2
12 10 5 1 4 8 9 11 6 3 2 7
9 10 8 3 5 12 4 11 1 6 2 7
12 7 2 3 5 8 1 11 6 10 9 4
11 1 5 8 4 7 3 6 9 2 10 12
10 4 9 12 7 3 1 2 8 6 5 11
1 6 8 2 4 7 10 5 12 11 3 9
4 12 10 5 2 1 8 7 11 3 6 9
2 7 10 6 4 3 8 1 11 12 5 9
4 7 6 5 2 11 9 10 12 1 8 3
6 11 12 7 3 8 10 5 9 4 1 2
1 10 8 2 11 4 3 12 7 9 5 6
7 2 11 10 5 8 6 9 1 4 3 12
3 10 11 4 9 8 5 2 6 12 1 7
12 11 1 9 2 5 7 6 8 4 3 10
8 7 2 12 3 9 10 11 1 6 4 5
5 10 6 1 7 3 12 11 4 9 8 2
10 11 1 2 5 3 4 7 8 9 12 6
7 4 8 2 10 12 11 6 1 3 5 9
9 7 3 4 12 6 10 11 1 5 8 2
2 6 11 8 7 4 10 1 12 5 3 9
5 11 12 2 1 10 7 9 8 4 6 3
3 2 4 9 8 12 5 11 10 6 7 1

17
Lob Qmith
Rob Qmith
Vob Rmith
Lob Lmith
Wob Rmith
Pob Rmith
Zob Emith
Wob Pmith
Wob Amith
Cob Jmith
Hob Smith
Uob Imith
Hob Bmith
Tob Kmith
Dob Zmith
Hob Lmith
Tob Nmith
1 6 9 2 15 3 4 14 8 17 7 16 10 5 13 11 12
15 12 10 4 1 17 2 8 5 6 9 14 11 16 7 3 13
12 8 5 13 6 3 17 7 9 11 4 15 2 16 1 14 10
16 9 13 6 7 14 8 15 3 2 4 17 12 10 1 11 5
14 12 5 1 11 13 7 2 15 6 10 16 17 8 9 4 3
3 15 13 9 16 8 4 2 14 5 6 12 10 1 7 11 17
10 3 1 13 15 11 14 6 5 16 4 9 2 8 17 12 7
11 7 15 12 3 10 14 4 17 5 6 16 13 9 2 8 1
10 13 2 14 7 6 3 11 16 4 8 1 5 9 12 17 15
13 3 16 6 9 1 4 2 15 17 7 12 10 14 5 11 8
1 4 2 5 6 12 17 11 8 9 14 7 10 16 13 15 3
9 16 10 3 8 4 14 7 2 17 12 13 15 1 11 5 6
1 14 15 5 2 11 9 13 16 4 10 3 17 7 12 8 6
12 4 14 16 3 5 8 2 13 10 11 17 7 1 6 15 9
6 7 17 15 1 11 2 13 4 14 5 8 3 10 9 12 16
9 10 11 7 2 14 4 16 1 3 12 5 8 17 6 13 15
9 3 8 12 15 5 10 7 2 14 17 1 4 6 13 16 11
6 14 2 15 9 7 8 10 17 1 13 4 11 3 5 16 12
15 5 12 1 10 2 7 17 8 9 16 13 4 14 11 3 6
16 8 15 14 10 6 7 13 17 11 5 2 1 3 12 4 9
17 9 3 8 6 5 13 4 10 12 16 1 7 14 2 11 15
2 10 4 9 8 14 12 6 15 3 7 16 5 1 13 17 11
7 2 6 1 15 5 8 4 9 11 14 3 13 10 16 12 17
3 10 9 11 15 8 5 6 2 16 13 14 7 17 1 4 12
9 7 2 17 3 15 13 8 5 12 14 1 6 11 4 10 16
8 14 4 16 1 12 13 9 5 7 11 17 15 2 6 3 10
9 6 4 17 14 11 13 10 15 3 12 2 7 1 16 5 8
12 16 10 4 7 1 5 8 9 3 2 11 6 14 17 13 15
1 8 3 6 12 4 5 13 9 7 11 17 10 2 15 16 14
13 9 3 7 16 8 12 2 6 15 10 4 14 17 1 5 11
17 5 2 8 10 11 16 3 4 13 6 15 7 12 14 9 1

1
Qob Umith
1
1
1
1
1
1
1
1
1
1
1
1
1
1
1
1
1
1
1
1
1
1
1
1
1
1
1
1
1
1
1
1
1
1
1
1

1
Hob Gmith
1
1
1
1
1
1
1
1
1
1
1
1
1
1
1
1
1
1
1
1
1
1
1
1
1
1
1
1
1
1
1
1
1
1
1
1
1
1
1
1
1

7
Yob Cmith
Kob Emith
Bob Rmith
Vob Omith
Lob Bmith
Dob Imith
Iob Omith
1 4 2 6 5 3 7
5 2 6 4 1 3 7
7 5 1 2 4 6 3
2 6 4 1 7 3 5
5 6 2 3 4 1 7
4 6 5 2 1 7 3
1 2 3 5 6 7 4
3 4 1 7 6 5 2
7 1 4 3 6 5 2
4 2 1 6 5 3 7
5 3 1 6 7 2 4
4 3 2 7 1 6 5
1 6 7 3 4 5 2
5 2 3 1 4 7 6
7 6 1 4 3 2 5
5 4 3 2 7 6 1
6 1 5 7 4 3 2
5 4 6 3 7 2 1
6 2 3 4 1 5 7
5 1 6 7 4 2 3
5 4 3 1 2 7 6

3
Aob Wmith
Lob Vmith
Yob Zmith
3 1 2
2 3 1
2 3 1
2 3 1

13
Job Pmith
Oob Smith
Qob Dmith
Sob Fmith
Xob Nmith
Sob Pmith
Aob Amith
Iob Wmith
Bob Umith
Vob Wmith
Kob Imith
Qob Tmith
Rob Xmith
13 6 7 10 2 9 11 5 4 1 12 3 8
10 12 6 13 9 3 1 7 11 8 4 2 5
10 3 2 7 11 6 13 9 8 5 1 4 12
1 10 12 9 6 5 3 4 7 2 11 8 13
2 1 6 10 4 9 13 5 11 12 7 3 8
5 8 12 2 9 4 10 1 3 11 7 13 6
2 10 12 4 5 11 13 8 6 3 1 7 9
7 6 13 9 1 8 5 3 2 10 12 4 11
9 4 7 8 2 10 12 13 6 5 1 3 11
10 2 7 6 4 8 1 9 5 13 3 11 12
12 3 2 6 9 13 11 8 1 4 7 5 10
6 10 2 11 3 4 9 7 1 8 5 12 13
3 10 8 1 11 2 4 9 7 12 6 13 5
13 6 5 12 4 1 9 3 2 8 11 10 7
10 9 6 2 8 7 13 3 1 12 5 4 11
8 4 3 12 13 6 1 7 11 9 10 5 2
7 13 8 10 1 6 12 9 3 4 5 2 11
12 9 8 5 1 6 4 2 10 7 3 13 11
13 3 6 5 12 11 4 8 2 9 10 1 7
3 4 9 5 7 13 12 1 11 6 2 10 8
13 8 11 3 6 9 5 7 10 12 2 4 1
8 11 3 6 13 1 5 12 7 10 9 2 4
2 5 11 7 6 4 8 13 12 9 3 1 10
10 5 7 9 13 2 4 3 11 12 8 6 1
3 4 6 12 7 13 10 1 9 11 5 8 2
10 3 7 4 8 5 6 11 12 2 9 13 1
9 1 11 12 8 3 13 4 7 2 10 5 6
9 13 10 3 11 4 1 7 12 5 8 2 6
3 8 10 5 1 7 4 9 12 11 6 13 2
12 10 8 13 2 4 3 9 7 5 6 11 1
5 6 9 4 13 7 2 11 1 12 3 10 8
2 7 3 11 5 1 6 10 4 12 8 13 9
7 6 8 5 4 13 2 1 11 12 9 10 3
6 13 2 5 11 7 3 1 4 12 9 10 8
11 6 8 9 4 12 13 2 10 3 7 1 5
8 13 11 2 3 1 9 10 6 7 5 12 4
2 12 6 9 8 13 1 10 7 3 5 4 11
5 4 8 2 9 3 11 6 1 10 13 12 7
2 6 12 9 10 3 7 11 1 13 5 4 8
11 13 2 7 6 9 4 1 8 3 5 12 10
8 4 3 12 5 11 7 6 1 13 9 2 10
13 12 1 8 5 6 7 11 9 2 3 4 10
8 2 11 5 3 7 4 9 12 10 6 13 1
6 7 3 4 8 2 13 10 12 11 5 9 1
1 8 3 9 10 2 12 6 4 13 11 7 5
2 9 4 7 6 11 1 10 13 3 5 12 8
12 3 8 11 7 4 10 1 2 5 9 6 13
3 6 13 9 11 2 4 10 7 12 5 1 8
3 12 11 13 1 10 7 8 2 6 5 4 9
7 5 11 6 13 12 3 4 1 8 10 2 9
13 2 5 4 11 7 9 12 6 8 1 10 3
4 5 1 8 13 10 7 3 11 9 12 2 6

2
Tob Hmith
Eob Imith
1 2
1 2
1 2
2 1
1 2
1 2
2 1
1 2
1 2
1 2
1 2
1 2
1 2
2 1
1 2
2 1
1 2
2 1

2
Rob Bmith
Kob Tmith
1 2
2 1
2 1
1 2
1 2
2 1
1 2
2 1
1 2
1 2

17
Yob Jmith
Lob Wmith
Zob Hmith
Eob Pmith
Nob Fmith
Iob Tmith
Wob Bmith
Uob Vmith
Uob Bmith
Kob Mmith
Uob Lmith
Bob Vmith
Nob Bmith
Lob Vmith
Iob Qmith
Sob Zmith
Tob Kmith
13 1 4 16 2 5 14 8 7 3 12 17 15 6 11 10 9
17 14 8 10 16 13 4 15 11 12 5 7 2 1 3 6 9
3 5 11 12 17 15 6 14 13 7 16 8 10 1 4 9 2
9 5 12 14 7 16 3 8 2 17 4 11 13 1 10 6 15
13 3 10 11 15 14 5 17 8 16 9 4 12 7 2 1 6
9 5 15 8 16 4 6 14 1 13 2 12 17 7 3 10 11
9 6 16 15 7 4 12 17 3 10 1 2 14 13 5 11 8
14 6 12 11 17 3 10 7 13 2 1 16 5 8 4 9 15
17 3 6 7 1 4 8 5 11 16 10 13 14 15 12 9 2
4 9 6 15 2 13 7 14 16 11 17 1 12 5 3 8 10
13 1 4 3 15 6 12 10 9 7 17 5 8 11 14 16 2
15 6 12 13 8 14 5 1 10 2 11 4 7 3 16 17 9
11 14 8 3 1 17 4 2 6 15 12 7 16 13 10 9 5

12
Xob Umith
Zob Fmith
Dob Nmith
Xob Emith
Uob Tmith
Job Zmith
Dob Mmith
Nob Vmith
Wob Lmith
Xob Bmith
Mob Bmith
Wob Rmith
1 4 5 8 6 10 12 2 3 7 9 11
9 1 5 11 7 3 4 6 10 2 12 8
8 5 11 2 1 9 3 6 10 12 7 4
11 9 5 10 7 8 4 6 12 1 2 3
9 10 4 7 8 1 3 12 2 6 5 11
8 6 1 7 11 2 9 4 10 12 5 3
9 8 10 12 3 11 1 4 5 6 7 2
10 2 11 4 9 3 6 8 12 1 7 5
10 6 5 3 8 4 9 11 7 1 12 2
9 7 12 6 2 4 5 8 10 3 1 11
5 2 7 1 12 4 3 8 6 11 10 9
2 9 4 1 7 8 12 5 11 10 3 6
2 9 5 11 6 1 8 3 4 7 12 10
10 2 8 6 5 3 7 11 9 4 1 12
10 4 12 1 5 3 6 8 2 9 7 11

7
Lob Bmith
Vob Dmith
Nob Nmith
Qob Dmith
Cob Hmith
Kob Ymith
Kob Jmith
4 7 5 1 3 2 6
1 4 7 3 2 6 5
6 2 7 3 4 1 5
6 4 3 1 2 5 7
6 1 7 3 4 2 5
6 2 3 1 4 5 7
6 3 2 7 5 4 1
7 3 1 4 6 5 2
1 4 7 5 3 6 2
2 7 5 1 6 4 3
5 6 7 2 3 4 1
1 4 6 2 3 5 7
4 6 7 1 3 5 2
1 5 2 4 6 7 3
1 2 4 6 3 7 5
2 3 5 4 1 6 7
2 4 3 7 6 1 5
3 1 7 5 6 2 4
4 5 2 3 1 7 6
3 5 7 2 6 1 4
5 4 7 2 6 3 1
4 6 1 7 2 5 3
4 7 5 1 3 2 6
5 7 3 2 1 4 6
7 3 5 2 1 4 6
7 6 1 3 2 5 4
7 6 4 2 5 3 1
6 2 4 5 1 3 7
3 5 2 1 6 7 4
7 3 5 1 6 4 2
3 1 2 6 7 4 5
3 4 2 7 5 6 1
6 7 3 4 5 2 1
4 3 7 2 6 5 1
7 4 3 1 5 2 6
6 1 3 2 7 5 4
7 4 1 2 6 3 5
2 3 1 5 4 7 6
2 6 3 4 1 7 5
3 1 6 7 5 4 2
4 3 2 7 1 5 6
2 4 6 1 7 3 5
1 2 6 3 4 7 5
7 6 1 5 3 4 2
3 2 7 1 4 6 5
5 7 3 1 4 2 6

11
Lob Pmith
Tob Smith
Cob Dmith
Xob Lmith
Mob Xmith
Sob Umith
Rob Pmith
Lob Smith
Job Dmith
Zob Emith
Iob Amith
11 1 8 7 5 2 3 9 4 6 10
9 8 6 5 10 1 2 7 11 4 3
8 11 5 7 2 4 10 3 9 1 6
3 8 7 6 5 10 1 2 11 4 9
3 9 8 2 6 4 1 10 5 7 11
6 4 10 1 7 2 11 3 9 5 8
4 2 7 3 9 6 1 5 11 10 8
10 6 1 9 11 3 4 7 2 5 8
2 3 7 5 10 11 1 4 8 9 6
5 11 7 6 4 10 2 3 9 1 8
2 7 6 5 10 11 3 1 9 4 8
3 11 10 5 7 8 6 2 9 4 1
9 2 10 11 7 4 3 1 6 8 5
10 6 9 5 8 3 11 4 2 7 1
2 7 1 10 4 8 6 5 3 11 9
5 3 4 8 10 6 7 9 1 11 2
3 7 9 11 10 1 8 2 5 6 4
1 11 7 2 10 8 5 3 4 9 6
1 2 10 5 4 3 11 9 8 7 6
1 5 8 7 3 11 2 10 6 4 9
9 11 1 3 4 7 8 2 5 10 6
8 9 10 7 1 11 5 3 6 4 2
3 8 7 5 9 2 10 4 6 11 1
6 5 3 7 1 8 11 9 2 10 4
2 9 1 11 8 10 4 7 6 3 5
10 6 1 5 7 9 11 4 3 2 8
1 10 3 7 5 4 8 9 6 11 2
7 3 6 11 4 5 2 9 10 1 8
10 11 3 8 7 1 4 5 6 9 2
7 11 9 4 3 1 8 5 10 6 2
4 3 9 10 1 2 8 11 5 6 7
10 2 3 11 6 7 8 5 1 4 9
9 1 11 4 8 10 2 7 6 3 5
4 8 11 1 3 6 7 5 9 10 2
7 9 8 10 6 3 1 11 4 5 2
11 5 9 2 4 6 3 8 1 10 7
10 3 5 9 2 8 11 4 7 1 6
4 2 5 3 9 7 8 1 6 11 10
5 6 7 11 3 4 10 8 1 2 9
9 2 11 5 3 4 7 1 8 10 6
9 5 6 8 4 11 3 2 1 7 10
10 8 6 9 7 3 5 11 1 4 2
6 3 2 7 4 11 8 1 9 5 10
5 7 6 11 10 3 8 2 4 9 1
8 2 11 5 7 9 4 6 3 10 1
3 2 9 7 4 10 5 6 1 8 11
3 11 7 5 4 2 1 9 10 8 6
10 6 3 8 5 11 7 1 4 2 9
2 11 1 4 10 8 3 7 9 5 6
8 7 6 5 4 1 11 9 2 3 10
10 6 5 2 11 4 3 7 8 1 9
5 10 4 1 3 9 7 11 2 8 6
11 8 7 4 2 10 1 3 5 6 9
3 2 8 10 9 11 1 4 5 7 6
4 2 3 1 9 6 7 8 5 10 11
4 11 5 10 9 6 7 2 1 8 3
4 2 10 3 6 7 11 1 8 5 9
6 10 1 11 2 7 3 8 9 5 4
11 9 10 1 4 6 7 8 3 5 2

5
Nob Hmith
Uob Omith
Xob Imith
Sob Qmith
Mob Pmith
3 2 4 1 5
5 2 4 3 1
1 3 5 2 4
2 5 3 1 4
2 5 3 4 1
2 5 3 4 1
3 4 5 1 2
1 5 2 3 4
4 1 3 5 2
5 4 1 2 3
2 5 3 4 1
2 5 4 3 1
2 4 1 3 5
2 3 4 1 5
4 2 1 3 5
5 2 3 4 1
1 2 5 4 3
4 2 5 1 3
4 5 1 2 3
2 5 1 4 3
3 5 1 4 2
4 2 5 3 1
1 2 5 4 3
1 5 4 3 2
4 2 5 1 3
3 4 2 1 5
5 3 2 4 1
2 3 5 4 1
1 2 5 3 4
5 3 1 2 4
1 4 5 3 2

16
Qob Tmith
Yob Zmith
Mob Ymith
Yob Xmith
Nob Rmith
Oob Xmith
Cob Gmith
Xob Hmith
Fob Imith
Lob Pmith
Mob Ymith
Zob Dmith
Bob Pmith
Nob Bmith
Cob Nmith
Nob Qmith
4 5 6 15 1 13 3 12 10 11 16 2 14 7 9 8
1 16 9 10 3 11 15 14 2 7 4 8 6 13 12 5
9 2 13 12 4 6 3 14 10 8 16 5 11 15 1 7
9 2 10 14 1 13 7 12 6 5 8 15 16 11 4 3
12 16 2 7 3 1 11 8 4 10 13 5 9 6 15 14
5 14 12 15 1 3 7 11 9 6 10 16 13 4 8 2
10 8 14 4 1 2 13 5 11 12 9 15 6 16 7 3
16 6 4 1 5 2 15 10 9 11 13 3 12 7 8 14
15 12 14 4 13 11 6 8 10 3 5 9 16 7 1 2
10 11 3 13 7 4 6 2 5 16 8 9 12 1 15 14
9 11 15 3 16 5 12 14 1 6 13 10 8 2 4 7
7 16 1 2 4 9 15 3 5 14 10 12 13 11 8 6
2 1 15 3 14 9 6 8 16 10 13 7 12 4 11 5
6 11 2 10 5 13 8 12 3 9 15 14 16 7 4 1
2 10 1 4 5 12 8 11 13 9 6 14 15 16 7 3
13 15 8 2 5 12 16 1 6 7 10 9 11 3 4 14
11 14 16 12 4 1 7 3 9 5 6 2 10 15 13 8
3 8 11 7 5 4 1 9 6 12 2 13 15 16 10 14
10 8 16 3 9 14 2 7 15 6 1 5 11 13 4 12
6 4 16 1 8 14 7 5 10 15 12 9 3 13 2 11
12 2 11 8 15 10 7 16 5 6 13 1 4 9 3 14
13 8 4 16 14 12 15 6 9 5 2 7 1 10 11 3
13 9 15 5 1 7 3 4 10 16 14 2 6 8 12 11
5 2 9 8 13 14 4 6 7 3 15 11 1 10 12 16
10 13 8 1 5 9 7 16 14 2 3 6 11 15 4 12
6 11 2 15 5 9 8 1 4 16 13 14 7 3 12 10
10 5 1 4 6 12 13 11 7 2 14 3 16 15 8 9
4 2 10 14 1 16 9 5 13 8 11 7 6 15 3 12
11 13 9 10 16 7 6 2 14 1 5 15 3 8 12 4

10
Xob Gmith
Fob Rmith
Eob Qmith
Vob Zmith
Pob Mmith
Vob Qmith
Qob Zmith
Iob Smith
Bob Gmith
Bob Tmith
9 4 1 3 6 8 2 10 5 7
6 4 5 2 7 8 10 3 1 9
5 7 1 8 10 6 9 4 2 3
9 7 2 10 8 4 1 3 5 6
10 5 6 9 1 7 8 3 4 2
5 2 10 1 7 8 9 6 3 4
5 3 7 2 6 10 4 1 9 8
2 6 10 9 4 7 3 8 1 5
2 8 10 3 9 1 5 7 4 6
10 8 4 3 2 1 7 6 5 9

8
Pob Dmith
Eob Xmith
Hob Omith
Kob Wmith
Rob Amith
Job Amith
Oob Amith
Yob Wmith
6 4 2 5 8 1 7 3
6 1 7 2 8 3 4 5
6 7 3 2 4 5 1 8
1 3 2 7 6 4 5 8
7 6 8 3 5 1 4 2
8 4 6 7 2 3 5 1
8 2 5 7 1 4 3 6
1 4 2 8 7 5 3 6
2 1 3 8 4 7 6 5
8 4 6 5 3 2 1 7
1 8 3 2 6 7 5 4
8 3 2 5 7 6 1 4
1 7 4 8 3 5 2 6
3 8 4 7 1 2 5 6
7 6 2 1 3 8 5 4
3 6 2 7 5 1 8 4
5 4 6 1 7 2 8 3
3 5 7 8 6 1 4 2
